23

7 6
25
5 4
3 2
1 2
4 2
4 0
5 3
0 0
3 5
3 2
1 1
3 1
3 0
1 2
3 4
1 2
6 0
2 5
2 2
4 4
2 3
5 1
4 0
6 5
6 5
3 2
14 1

3 12
17
0 3
1 4
0 8
2 10
0 3
0 1
0 5
0 4
2 5
2 11
2 1
1 7
0 4
1 2
2 8
1 5
1 4
15 11

5 2
19
1 0
0 0
2 1
4 0
4 0
4 1
0 0
3 1
3 0
0 1
1 0
2 1
1 1
2 1
0 0
0 0
3 1
4 1
0 0
11 15

15 11
20
4 6
6 7
8 8
6 0
10 7
0 1
7 5
13 6
4 6
5 4
3 2
10 9
12 6
0 8
6 6
11 6
3 3
6 2
14 8
4 7
8 14

7 5
8
6 0
1 2
1 1
5 2
1 3
1 2
0 3
4 0
9 1

8 12
25
3 11
2 0
1 2
2 1
3 8
3 9
4 0
2 1
2 4
7 7
1 1
4 11
5 1
6 2
5 10
2 8
7 7
1 5
2 4
1 2
3 8
4 5
7 9
3 4
0 3
11 4

12 1
18
6 0
7 0
9 0
3 0
6 0
2 0
2 0
11 0
1 0
8 0
0 0
7 0
3 0
7 0
6 0
10 0
1 0
9 0
11 13

4 1
22
1 0
0 0
1 0
1 0
1 0
2 0
3 0
0 0
1 0
2 0
2 0
2 0
1 0
0 0
2 0
1 0
3 0
0 0
2 0
2 0
2 0
1 0
6 9

11 8
24
7 6
8 5
10 1
2 4
1 6
4 6
4 3
8 5
6 5
7 6
1 7
1 3
1 4
1 0
8 6
7 5
1 4
4 3
5 5
9 5
3 3
7 3
6 5
9 5
3 11

10 9
22
0 3
3 7
5 4
7 8
3 1
3 7
0 5
1 2
5 8
4 1
2 7
8 0
9 0
3 2
6 1
8 6
1 2
4 3
5 3
5 7
3 4
5 4
11 9

1 7
19
0 0
0 5
0 6
0 4
0 2
0 6
0 0
0 5
0 6
0 6
0 6
0 0
0 3
0 1
0 1
0 1
0 3
0 1
0 5
1 7

4 2
5
2 1
2 1
3 0
2 0
2 1
13 14

9 1
8
3 0
3 0
0 0
6 0
1 0
6 0
0 0
7 0
15 4

4 5
9
3 2
2 2
3 0
3 4
0 4
2 3
0 0
2 0
2 0
5 2

9 14
13
2 11
7 6
8 9
6 3
8 5
3 3
0 9
8 1
5 10
4 9
0 13
8 12
4 6
5 9

2 7
23
1 6
0 3
0 5
1 5
0 3
1 1
0 0
0 0
0 4
0 5
0 3
0 2
0 6
1 0
0 0
1 6
1 2
0 3
1 6
0 1
0 3
0 2
0 1
9 1

5 5
14
2 1
0 2
0 4
3 2
3 4
1 3
0 4
3 2
0 1
4 2
0 2
3 0
3 0
0 1
10 4

11 9
20
2 3
7 5
1 0
5 7
3 3
7 3
2 6
5 6
10 2
4 8
2 3
10 2
6 2
7 0
3 6
6 2
9 7
2 2
8 7
0 1
13 1

12 15
14
8 4
5 6
11 2
11 11
8 8
2 9
9 9
2 4
1 0
9 13
5 0
4 2
8 11
1 6
14 9

15 13
24
6 1
1 9
0 3
10 5
8 3
3 9
2 6
5 2
4 11
4 10
8 3
10 4
3 3
6 9
13 8
7 6
0 2
7 10
9 7
2 6
5 2
11 1
7 3
5 0
14 11

6 14
22
5 0
3 9
1 12
3 10
0 4
4 13
5 12
0 5
0 9
4 9
3 0
3 8
0 8
1 4
4 11
5 1
0 11
3 12
2 7
1 6
3 6
0 13
2 13

5 15
8
4 7
4 0
1 3
1 10
3 2
2 6
0 9
2 14
3 15

4 7
7
0 2
3 0
1 2
2 4
2 1
1 5
2 0
10 1
