*** Life<ConwayCell> 29x16 ***

Generation = 0, Population = 4.
................
................
............*...
................
...........*....
................
................
................
................
................
................
................
................
................
................
...............*
................
................
................
................
................
.............*..
................
................
................
................
................
................
................

Generation = 18, Population = 0.
................
................
................
................
................
................
................
................
................
................
................
................
................
................
................
................
................
................
................
................
................
................
................
................
................
................
................
................
................

Generation = 36, Population = 0.
................
................
................
................
................
................
................
................
................
................
................
................
................
................
................
................
................
................
................
................
................
................
................
................
................
................
................
................
................

Generation = 54, Population = 0.
................
................
................
................
................
................
................
................
................
................
................
................
................
................
................
................
................
................
................
................
................
................
................
................
................
................
................
................
................

Generation = 72, Population = 0.
................
................
................
................
................
................
................
................
................
................
................
................
................
................
................
................
................
................
................
................
................
................
................
................
................
................
................
................
................

*** Life<ConwayCell> 9x19 ***

Generation = 0, Population = 29.
...*.........*..*..
.**.....*.*..*....*
*..........*..*....
*.*....*...........
...........*.....*.
................*..
....*.*...**..*....
...*...............
.....*.*.......**.*

Generation = 1, Population = 15.
..*................
.**.........***....
*.*................
.*.................
...................
..........**.......
...................
....***........*...
...................

Generation = 2, Population = 13.
.**..........*.....
..**.........*.....
*.*..........*.....
.*.................
...................
...................
.....*.............
.....*.............
.....*.............

Generation = 3, Population = 13.
.***...............
...*........***....
..**...............
.*.................
...................
...................
...................
....***............
...................

Generation = 4, Population = 13.
..**.........*.....
.*..*........*.....
..**.........*.....
..*................
...................
...................
.....*.............
.....*.............
.....*.............

Generation = 5, Population = 15.
..**...............
.*..*.......***....
.***...............
..**...............
...................
...................
...................
....***............
...................

Generation = 6, Population = 14.
..**.........*.....
.*..*........*.....
.*..*........*.....
.*.*...............
...................
...................
.....*.............
.....*.............
.....*.............

Generation = 7, Population = 15.
..**...............
.*..*.......***....
**.**..............
..*................
...................
...................
...................
....***............
...................

Generation = 8, Population = 18.
..**.........*.....
**..*........*.....
**.**........*.....
.***...............
...................
...................
.....*.............
.....*.............
.....*.............

Generation = 9, Population = 17.
.***...............
*...*.......***....
....*..............
**.**..............
..*................
...................
...................
....***............
...................

Generation = 10, Population = 23.
.***.........*.....
.**.*........*.....
**..**.......*.....
.****..............
.***...............
...................
.....*.............
.....*.............
.....*.............

Generation = 11, Population = 16.
.*.*...............
....**......***....
*....*.............
.....*.............
.*..*..............
..*................
...................
....***............
...................

Generation = 12, Population = 13.
....*........*.....
....**.......*.....
.....**......*.....
....**.............
...................
...................
.....*.............
.....*.............
.....*.............

Generation = 13, Population = 14.
....**.............
....*.*.....***....
......*............
....***............
...................
...................
...................
....***............
...................

Generation = 14, Population = 16.
....**.......*.....
....*.*......*.....
....*.**.....*.....
.....**............
.....*.............
...................
.....*.............
.....*.............
.....*.............

Generation = 15, Population = 18.
....**.............
...**.**....***....
....*..*...........
....*..*...........
.....**............
...................
...................
....***............
...................

Generation = 16, Population = 20.
...****......*.....
...*..**.....*.....
....*..**....*.....
....*..*...........
.....**............
...................
.....*.............
.....*.............
.....*.............

Generation = 17, Population = 24.
...*****...........
...*....*...***....
...***..*..........
....*..**..........
.....**............
.....**............
...................
....***............
...................

Generation = 18, Population = 23.
...*****.....*.....
..*.....*....*.....
...*.*..**...*.....
...*...**..........
....*..............
.....**............
....*..............
.....*.............
.....*.............

Generation = 19, Population = 29.
...*****...........
..*.....**..***....
..***....*.........
...*...***.........
....****...........
....**.............
....*.*............
....**.............
...................

Generation = 20, Population = 29.
...******....*.....
..*...****...*.....
..*.*..*..*..*.....
..*....*.*.........
...*...*...........
...*...*...........
...*..*............
....**.............
...................

Generation = 21, Population = 29.
...***...*.........
..*......*..***....
.**.......*........
..*...**...........
..**..**...........
..***.**...........
...*.**............
....**.............
...................

Generation = 22, Population = 23.
...**........*.....
.**.*....**..*.....
.***.........*.....
......**...........
.*..*...*..........
...................
..*....*...........
....***............
...................

Generation = 23, Population = 19.
..***..............
.*..*.......***....
.*.*...............
.*.*...*...........
.......*...........
...................
.....**............
.....**............
.....*.............

Generation = 24, Population = 18.
..***........*.....
.*..*........*.....
**.**........*.....
...................
...................
......*............
.....**............
....*..............
.....**............

Generation = 25, Population = 20.
..***..............
**...*......***....
*****..............
...................
...................
.....**............
.....**............
....*..............
.....*.............

Generation = 26, Population = 22.
.****........*.....
*....*.......*.....
*.***........*.....
.***...............
...................
.....**............
....*.*............
....*.*............
...................

Generation = 27, Population = 19.
.****..............
*....*......***....
*...*..............
.*..*..............
..*................
.....**............
....*.**...........
...................
...................

Generation = 28, Population = 22.
.****........*.....
*.*..*.......*.....
**..**.......*.....
.*.*...............
.....*.............
.....***...........
......**...........
...................
...................

Generation = 29, Population = 23.
.****..............
*....*......***....
*..***.............
***..*.............
....**.............
.....*.*...........
.....*.*...........
...................
...................

Generation = 30, Population = 22.
.****........*.....
*....*.......*.....
*.**.**......*.....
***...*............
.*..**.............
.....*.............
...................
...................
...................

Generation = 31, Population = 26.
.****..............
*....**.....***....
*.*****............
*.....*............
***.***............
....**.............
...................
...................
...................

Generation = 32, Population = 25.
.*****.......*.....
*.....*......*.....
*..**..*.....*.....
*......*...........
**.**.*............
.*.**.*............
...................
...................
...................

Generation = 33, Population = 29.
.*****.............
*.....*.....***....
**....**...........
*.*..***...........
**.**.**...........
**.**..............
...................
...................
...................

Generation = 34, Population = 24.
.*****.......*.....
*..**.**.....*.....
*............*.....
..***...*..........
.......*...........
**.***.............
...................
...................
...................

Generation = 35, Population = 18.
.**..**............
*.....*.....***....
.**..*.*...........
...*...............
.*...*.............
....*..............
....*..............
...................
...................

Generation = 36, Population = 17.
.*...**......*.....
*......*.....*.....
.**...*......*.....
.*..*.*............
....*..............
....**.............
...................
...................
...................

Generation = 37, Population = 21.
......*............
*.*..*.*....***....
***..***...........
.***...............
...**..............
....**.............
...................
...................
...................

Generation = 38, Population = 19.
......*......*.....
*.*..*.*.....*.....
*...**.*.....*.....
*....**............
.....*.............
...***.............
...................
...................
...................

Generation = 39, Population = 14.
......*............
.*..**.*....***....
*...*..*...........
...................
...................
....**.............
....*..............
...................
...................

Generation = 40, Population = 15.
.....**......*.....
....**.*.....*.....
....***......*.....
...................
...................
....**.............
....**.............
...................
...................

Generation = 41, Population = 14.
....***............
.......*....***....
....*.*............
.....*.............
...................
....**.............
....**.............
...................
...................

Generation = 42, Population = 16.
.....**......*.....
....*..*.....*.....
.....**......*.....
.....*.............
....**.............
....**.............
....**.............
...................
...................

Generation = 43, Population = 15.
.....**............
....*..*....***....
....***............
...................
......*............
...*..*............
....**.............
...................
...................

Generation = 44, Population = 15.
.....**......*.....
....*..*.....*.....
....***......*.....
......*............
...................
....*.*............
....**.............
...................
...................

Generation = 45, Population = 15.
.....**............
....*..*....***....
....*.**...........
......*............
.....*.............
....*..............
....**.............
...................
...................

Generation = 46, Population = 15.
.....**......*.....
....*..*.....*.....
......**.....*.....
......**...........
.....*.............
....*..............
....**.............
...................
...................

Generation = 47, Population = 15.
.....**............
.......*....***....
.....*..*..........
.....*.*...........
.....**............
....*..............
....**.............
...................
...................

Generation = 48, Population = 18.
......*......*.....
.....*.*.....*.....
.......**....*.....
....**.*...........
....***............
....*.*............
....**.............
...................
...................

Generation = 49, Population = 19.
......*............
.......**...***....
....**.**..........
....*..**..........
...*...*...........
...*..*............
....**.............
...................
...................

Generation = 50, Population = 22.
.......*.....*.....
.....*..*....*.....
....**...*...*.....
...***.............
...**.***..........
...*.**............
....**.............
...................
...................

Generation = 51, Population = 17.
...................
....***.*...***....
...*..*............
.......**..........
..*....*...........
...*...............
....***............
...................
...................

Generation = 52, Population = 23.
.....*.......*.....
....****.....*.....
....*.*.*....*.....
......***..........
.......**..........
...****............
....**.............
.....*.............
...................

Generation = 53, Population = 20.
....**.............
....*..*....***....
....*...*..........
.....**..*.........
....*...*..........
...*..**...........
...*...............
....**.............
...................

Generation = 54, Population = 25.
....**.......*.....
...**........*.....
....*.***....*.....
....**.***.........
....*...*..........
...**..*...........
...*.**............
....*..............
...................

Generation = 55, Population = 24.
...***.............
...*..**....***....
......*..*.........
...**....*.........
......*..*.........
...*..**...........
...*.**............
....**.............
...................

Generation = 56, Population = 33.
...****......*.....
...*..**.....*.....
...******....*.....
.....*..***........
...******..........
....*..*...........
...*...*...........
....***............
...................

Generation = 57, Population = 18.
...*****...........
..*.....*...***....
...*...............
...................
...*...............
...................
...*...*...........
....***............
.....*.............

Generation = 58, Population = 21.
...*****.....*.....
..*..***.....*.....
.............*.....
...................
...................
...................
....***............
....***............
....***............

Generation = 59, Population = 16.
...**..*...........
...*...*....***....
......*............
...................
...................
.....*.............
....*.*............
...*...*...........
....*.*............

Generation = 60, Population = 17.
...**........*.....
...**.**.....*.....
.............*.....
...................
...................
.....*.............
....***............
...**.**...........
...................

Generation = 61, Population = 18.
...***.............
...***......***....
...................
...................
...................
....***............
...*...*...........
...**.**...........
...................

Generation = 62, Population = 18.
...*.*.......*.....
...*.*.......*.....
....*........*.....
...................
.....*.............
....***............
...*...*...........
...**.**...........
...................

Generation = 63, Population = 18.
...................
...*.*......***....
....*..............
...................
....***............
....***............
...*...*...........
...**.**...........
...................

Generation = 64, Population = 16.
.............*.....
....*........*.....
....*........*.....
....*..............
....*.*............
...*...*...........
...*...*...........
...**.**...........
...................

Generation = 65, Population = 23.
...................
............***....
...***.............
...**..............
...***.............
...**.**...........
..**...**..........
...**.**...........
...................

Generation = 66, Population = 20.
.............*.....
....*........*.....
...*.*.......*.....
..*................
..*...*............
......***..........
..*.....*..........
..***.***..........
...................

Generation = 67, Population = 20.
...................
....*.......***....
...**..............
..**...............
......*............
......*.*..........
..*..*...*.........
..**...**..........
...*...*...........

Generation = 68, Population = 28.
.............*.....
...**........*.....
..*.*........*.....
..***..............
.......*...........
.....***...........
..**..*..*.........
..***.***..........
..**...**..........

Generation = 69, Population = 26.
...................
...**.......***....
..*..*.............
..*.*..............
...***.*...........
.....*.**..........
..*................
.*..***..*.........
..*.*.*.*..........

Generation = 70, Population = 29.
.............*.....
...**........*.....
..*..*.......*.....
..*...*............
...*.*.**..........
...*.*.**..........
....*..**..........
.**.*.**...........
...**.**...........

Generation = 71, Population = 30.
...................
...**.......***....
..*.**.............
..******...........
..**.*..*..........
...*.*...*.........
..*.*..............
..*.*..............
..***.**...........

Generation = 72, Population = 21.
.............*.....
...***.......*.....
..*..........*.....
.*.....*...........
.......**..........
.....*.............
..*.**.............
.**.*..............
..*.**.............

Generation = 73, Population = 27.
....*..............
...**.......***....
..***..............
.......**..........
......***..........
....***............
.**.**.............
.**................
.**.**.............

Generation = 74, Population = 23.
...**........*.....
..*..*.......*.....
..*.*........*.....
...*..*.*..........
........*..........
...**..............
.**.*.*............
*..................
.***...............

Generation = 75, Population = 26.
...**..............
..*..*......***....
..*.**.............
...*...*...........
...**..*...........
..****.............
.**.**.............
*..................
.**................

Generation = 76, Population = 24.
...**........*.....
..*..*.......*.....
..*.***......*.....
..*..**............
.....**............
.*....*............
.**..*.............
*..*...............
.*.................

Generation = 77, Population = 20.
...**..............
..*...*.....***....
.**.*..............
...*...*...........
.......*...........
.**...*............
***................
*..................
...................

Generation = 78, Population = 20.
...*.........*.....
.**.**.......*.....
.**..........*.....
..**...............
..*...**...........
*.*................
*.*................
*..................
...................

Generation = 79, Population = 15.
..***..............
.*..*.......***....
....*..............
...*...............
..*................
..**...............
*..................
.*.................
...................

Generation = 80, Population = 18.
..***........*.....
..*.**.......*.....
...**........*.....
...*...............
..*................
.***...............
.**................
...................
...................

Generation = 81, Population = 17.
..*.**.............
..*..*......***....
..*..*.............
..***..............
.*.................
...*...............
.*.*...............
...................
...................

Generation = 82, Population = 19.
...***.......*.....
.**..**......*.....
.**..*.......*.....
.****..............
....*..............
...................
..*................
...................
...................

Generation = 83, Population = 18.
..*****............
.*....*.....***....
*....**............
.*..**.............
..*.*..............
...................
...................
...................
...................

Generation = 84, Population = 23.
..*****......*.....
.***...*.....*.....
**..*.*......*.....
.*.**.*............
...***.............
...................
...................
...................
...................

Generation = 85, Population = 20.
.*..***............
*......*....***....
*...*.**...........
**....*............
..**.*.............
....*..............
...................
...................
...................

Generation = 86, Population = 27.
.....**......*.....
**..*..*.....*.....
*....***.....*.....
*****.**...........
.*****.............
...**..............
...................
...................
...................

Generation = 87, Population = 15.
.....**............
**..*..*....***....
........*..........
*......*...........
*.....*............
.....*.............
...................
...................
...................

Generation = 88, Population = 14.
.....**......*.....
.....***.....*.....
**.....**....*.....
.......*...........
......*............
...................
...................
...................
...................

Generation = 89, Population = 11.
.....*.*...........
.....*..*...***....
........*..........
......***..........
...................
...................
...................
...................
...................

Generation = 90, Population = 13.
......*......*.....
......***....*.....
......*.**...*.....
.......**..........
.......*...........
...................
...................
...................
...................

Generation = 91, Population = 14.
......*............
.....**.**..***....
......*..*.........
......*..*.........
.......**..........
...................
...................
...................
...................

Generation = 92, Population = 17.
.....***.....*.....
.....**.**...*.....
......*..**..*.....
......*..*.........
.......**..........
...................
...................
...................
...................

Generation = 93, Population = 16.
.....*.**..........
........***.***....
......*...*........
......*..**........
.......**..........
...................
...................
...................
...................

Generation = 94, Population = 18.
.......**....*.....
......*.*.**.*.....
.......**....*.....
......*.***........
.......***.........
...................
...................
...................
...................

Generation = 95, Population = 15.
.......***..*......
......*......**....
......*....**......
......*...*........
.......*..*........
........*..........
...................
...................
...................

Generation = 96, Population = 18.
.......**....*.....
......*.*..*.*.....
.....***...***.....
......**..*........
.......*.*.........
...................
...................
...................
...................

Generation = 97, Population = 20.
.......**...*......
.....*..*..*.**....
.....*..*.**.*.....
.....*....***......
......***..........
...................
...................
...................
...................

Generation = 98, Population = 23.
.......**...**.....
......*.*.**.**....
....***......**....
.....*..*.*.*......
......**...*.......
.......*...........
...................
...................
...................

Generation = 99, Population = 25.
.......***.****....
......*.**.*.......
....*.*...*...*....
....*......***.....
......***..*.......
......**...........
...................
...................
...................

*** Life<ConwayCell> 13x27 ***

Generation = 0, Population = 3.
...........................
...........................
...........................
.............*.............
...........................
...........................
...........................
.......*...................
...........................
...........................
...........................
...........................
..............*............

Generation = 16, Population = 0.
...........................
...........................
...........................
...........................
...........................
...........................
...........................
...........................
...........................
...........................
...........................
...........................
...........................

Generation = 32, Population = 0.
...........................
...........................
...........................
...........................
...........................
...........................
...........................
...........................
...........................
...........................
...........................
...........................
...........................

Generation = 48, Population = 0.
...........................
...........................
...........................
...........................
...........................
...........................
...........................
...........................
...........................
...........................
...........................
...........................
...........................

Generation = 64, Population = 0.
...........................
...........................
...........................
...........................
...........................
...........................
...........................
...........................
...........................
...........................
...........................
...........................
...........................

*** Life<ConwayCell> 3x8 ***

Generation = 0, Population = 17.
..******
**..**.*
**.*.***

Generation = 38, Population = 5.
.*......
*.*.....
**......

*** Life<ConwayCell> 19x3 ***

Generation = 0, Population = 22.
*..
...
.*.
.**
...
**.
.*.
...
**.
.*.
*..
.*.
*..
*.*
...
..*
.**
.*.
***

Generation = 7, Population = 7.
...
...
.*.
.*.
.*.
.**
.**
...
...
...
...
...
...
...
...
...
...
...
...

Generation = 14, Population = 2.
...
...
...
...
**.
...
...
...
...
...
...
...
...
...
...
...
...
...
...

Generation = 21, Population = 0.
...
...
...
...
...
...
...
...
...
...
...
...
...
...
...
...
...
...
...

Generation = 28, Population = 0.
...
...
...
...
...
...
...
...
...
...
...
...
...
...
...
...
...
...
...

Generation = 35, Population = 0.
...
...
...
...
...
...
...
...
...
...
...
...
...
...
...
...
...
...
...

Generation = 42, Population = 0.
...
...
...
...
...
...
...
...
...
...
...
...
...
...
...
...
...
...
...

Generation = 49, Population = 0.
...
...
...
...
...
...
...
...
...
...
...
...
...
...
...
...
...
...
...

Generation = 56, Population = 0.
...
...
...
...
...
...
...
...
...
...
...
...
...
...
...
...
...
...
...

Generation = 63, Population = 0.
...
...
...
...
...
...
...
...
...
...
...
...
...
...
...
...
...
...
...

Generation = 70, Population = 0.
...
...
...
...
...
...
...
...
...
...
...
...
...
...
...
...
...
...
...

Generation = 77, Population = 0.
...
...
...
...
...
...
...
...
...
...
...
...
...
...
...
...
...
...
...

Generation = 84, Population = 0.
...
...
...
...
...
...
...
...
...
...
...
...
...
...
...
...
...
...
...

Generation = 91, Population = 0.
...
...
...
...
...
...
...
...
...
...
...
...
...
...
...
...
...
...
...

Generation = 98, Population = 0.
...
...
...
...
...
...
...
...
...
...
...
...
...
...
...
...
...
...
...

*** Life<ConwayCell> 24x2 ***

Generation = 0, Population = 11.
..
.*
..
.*
..
..
*.
..
..
..
*.
.*
..
..
..
..
*.
.*
*.
..
**
..
.*
..

Generation = 50, Population = 0.
..
..
..
..
..
..
..
..
..
..
..
..
..
..
..
..
..
..
..
..
..
..
..
..

*** Life<ConwayCell> 7x7 ***

Generation = 0, Population = 14.
**..*..
*......
.*..*..
*......
..**...
*.*..*.
...*.*.

Generation = 1, Population = 13.
**.....
*......
**.....
.***...
..**...
.**....
....*..

Generation = 2, Population = 7.
**.....
.......
*......
*..*...
.......
.**....
.......

Generation = 3, Population = 4.
.......
**.....
.......
.......
.**....
.......
.......

Generation = 4, Population = 0.
.......
.......
.......
.......
.......
.......
.......

Generation = 5, Population = 0.
.......
.......
.......
.......
.......
.......
.......

Generation = 6, Population = 0.
.......
.......
.......
.......
.......
.......
.......

Generation = 7, Population = 0.
.......
.......
.......
.......
.......
.......
.......

Generation = 8, Population = 0.
.......
.......
.......
.......
.......
.......
.......

Generation = 9, Population = 0.
.......
.......
.......
.......
.......
.......
.......

Generation = 10, Population = 0.
.......
.......
.......
.......
.......
.......
.......

Generation = 11, Population = 0.
.......
.......
.......
.......
.......
.......
.......

Generation = 12, Population = 0.
.......
.......
.......
.......
.......
.......
.......

Generation = 13, Population = 0.
.......
.......
.......
.......
.......
.......
.......

Generation = 14, Population = 0.
.......
.......
.......
.......
.......
.......
.......

Generation = 15, Population = 0.
.......
.......
.......
.......
.......
.......
.......

Generation = 16, Population = 0.
.......
.......
.......
.......
.......
.......
.......

Generation = 17, Population = 0.
.......
.......
.......
.......
.......
.......
.......

Generation = 18, Population = 0.
.......
.......
.......
.......
.......
.......
.......

Generation = 19, Population = 0.
.......
.......
.......
.......
.......
.......
.......

Generation = 20, Population = 0.
.......
.......
.......
.......
.......
.......
.......

Generation = 21, Population = 0.
.......
.......
.......
.......
.......
.......
.......

Generation = 22, Population = 0.
.......
.......
.......
.......
.......
.......
.......

Generation = 23, Population = 0.
.......
.......
.......
.......
.......
.......
.......

Generation = 24, Population = 0.
.......
.......
.......
.......
.......
.......
.......

Generation = 25, Population = 0.
.......
.......
.......
.......
.......
.......
.......

Generation = 26, Population = 0.
.......
.......
.......
.......
.......
.......
.......

Generation = 27, Population = 0.
.......
.......
.......
.......
.......
.......
.......

Generation = 28, Population = 0.
.......
.......
.......
.......
.......
.......
.......

Generation = 29, Population = 0.
.......
.......
.......
.......
.......
.......
.......

Generation = 30, Population = 0.
.......
.......
.......
.......
.......
.......
.......

Generation = 31, Population = 0.
.......
.......
.......
.......
.......
.......
.......

Generation = 32, Population = 0.
.......
.......
.......
.......
.......
.......
.......

Generation = 33, Population = 0.
.......
.......
.......
.......
.......
.......
.......

Generation = 34, Population = 0.
.......
.......
.......
.......
.......
.......
.......

Generation = 35, Population = 0.
.......
.......
.......
.......
.......
.......
.......

Generation = 36, Population = 0.
.......
.......
.......
.......
.......
.......
.......

Generation = 37, Population = 0.
.......
.......
.......
.......
.......
.......
.......

Generation = 38, Population = 0.
.......
.......
.......
.......
.......
.......
.......

Generation = 39, Population = 0.
.......
.......
.......
.......
.......
.......
.......

Generation = 40, Population = 0.
.......
.......
.......
.......
.......
.......
.......

Generation = 41, Population = 0.
.......
.......
.......
.......
.......
.......
.......

Generation = 42, Population = 0.
.......
.......
.......
.......
.......
.......
.......

Generation = 43, Population = 0.
.......
.......
.......
.......
.......
.......
.......

Generation = 44, Population = 0.
.......
.......
.......
.......
.......
.......
.......

Generation = 45, Population = 0.
.......
.......
.......
.......
.......
.......
.......

Generation = 46, Population = 0.
.......
.......
.......
.......
.......
.......
.......

Generation = 47, Population = 0.
.......
.......
.......
.......
.......
.......
.......

Generation = 48, Population = 0.
.......
.......
.......
.......
.......
.......
.......

Generation = 49, Population = 0.
.......
.......
.......
.......
.......
.......
.......

Generation = 50, Population = 0.
.......
.......
.......
.......
.......
.......
.......

Generation = 51, Population = 0.
.......
.......
.......
.......
.......
.......
.......

Generation = 52, Population = 0.
.......
.......
.......
.......
.......
.......
.......

Generation = 53, Population = 0.
.......
.......
.......
.......
.......
.......
.......

Generation = 54, Population = 0.
.......
.......
.......
.......
.......
.......
.......

Generation = 55, Population = 0.
.......
.......
.......
.......
.......
.......
.......

Generation = 56, Population = 0.
.......
.......
.......
.......
.......
.......
.......

Generation = 57, Population = 0.
.......
.......
.......
.......
.......
.......
.......

Generation = 58, Population = 0.
.......
.......
.......
.......
.......
.......
.......

Generation = 59, Population = 0.
.......
.......
.......
.......
.......
.......
.......

Generation = 60, Population = 0.
.......
.......
.......
.......
.......
.......
.......

Generation = 61, Population = 0.
.......
.......
.......
.......
.......
.......
.......

Generation = 62, Population = 0.
.......
.......
.......
.......
.......
.......
.......

Generation = 63, Population = 0.
.......
.......
.......
.......
.......
.......
.......

Generation = 64, Population = 0.
.......
.......
.......
.......
.......
.......
.......

Generation = 65, Population = 0.
.......
.......
.......
.......
.......
.......
.......

Generation = 66, Population = 0.
.......
.......
.......
.......
.......
.......
.......

Generation = 67, Population = 0.
.......
.......
.......
.......
.......
.......
.......

Generation = 68, Population = 0.
.......
.......
.......
.......
.......
.......
.......

*** Life<ConwayCell> 4x25 ***

Generation = 0, Population = 29.
.*.**..*...*.*...*.*..*.*
.*...*..*.*.......*..**..
.*....*.*..*.*..*........
....**.*..*..*.........*.

Generation = 32, Population = 13.
.................**...*..
...*.............**..*.*.
...*.................*.*.
...*..................*..

*** Life<ConwayCell> 29x22 ***

Generation = 0, Population = 5.
......................
......................
......................
......................
......................
......................
......................
...............*......
......................
......................
......................
......................
......................
......................
......................
......................
......................
......................
......................
.............*....*...
......................
......................
...................*..
......................
......................
......................
......................
......................
..........*...........

Generation = 46, Population = 0.
......................
......................
......................
......................
......................
......................
......................
......................
......................
......................
......................
......................
......................
......................
......................
......................
......................
......................
......................
......................
......................
......................
......................
......................
......................
......................
......................
......................
......................

*** Life<ConwayCell> 22x14 ***

Generation = 0, Population = 23.
..............
..............
....*.........
..............
.....*........
.*.....*......
.....*........
......*.......
...*.......*..
.......**.....
..*...........
.....*........
..............
.*............
....*..*......
..............
..............
.............*
........*.....
...........*..
...**....*.*..
............*.

Generation = 36, Population = 6.
..............
..............
..............
..............
..............
..............
..............
..............
..............
..............
..............
..............
..............
..............
..............
..............
..............
..............
..............
..........**..
.........*..*.
..........**..

Generation = 72, Population = 6.
..............
..............
..............
..............
..............
..............
..............
..............
..............
..............
..............
..............
..............
..............
..............
..............
..............
..............
..............
..........**..
.........*..*.
..........**..

*** Life<ConwayCell> 20x29 ***

Generation = 0, Population = 27.
.....*.................*.....
.............................
.............................
.........................*...
.*....*..........*...........
*............................
..........*...*.............*
.............*..*............
...............*..*..........
.............................
.........*......*............
.........*.......*...........
......................*......
.....*.......................
.*...........................
....*........................
.............................
............*................
.......*.................*...
...............*....*........

Generation = 21, Population = 0.
.............................
.............................
.............................
.............................
.............................
.............................
.............................
.............................
.............................
.............................
.............................
.............................
.............................
.............................
.............................
.............................
.............................
.............................
.............................
.............................

Generation = 42, Population = 0.
.............................
.............................
.............................
.............................
.............................
.............................
.............................
.............................
.............................
.............................
.............................
.............................
.............................
.............................
.............................
.............................
.............................
.............................
.............................
.............................

*** Life<ConwayCell> 9x14 ***

Generation = 0, Population = 1.
..............
..............
..............
..............
..............
..............
..............
....*.........
..............

Generation = 6, Population = 0.
..............
..............
..............
..............
..............
..............
..............
..............
..............

Generation = 12, Population = 0.
..............
..............
..............
..............
..............
..............
..............
..............
..............

Generation = 18, Population = 0.
..............
..............
..............
..............
..............
..............
..............
..............
..............

Generation = 24, Population = 0.
..............
..............
..............
..............
..............
..............
..............
..............
..............

Generation = 30, Population = 0.
..............
..............
..............
..............
..............
..............
..............
..............
..............

Generation = 36, Population = 0.
..............
..............
..............
..............
..............
..............
..............
..............
..............

Generation = 42, Population = 0.
..............
..............
..............
..............
..............
..............
..............
..............
..............

Generation = 48, Population = 0.
..............
..............
..............
..............
..............
..............
..............
..............
..............

Generation = 54, Population = 0.
..............
..............
..............
..............
..............
..............
..............
..............
..............

Generation = 60, Population = 0.
..............
..............
..............
..............
..............
..............
..............
..............
..............

Generation = 66, Population = 0.
..............
..............
..............
..............
..............
..............
..............
..............
..............

Generation = 72, Population = 0.
..............
..............
..............
..............
..............
..............
..............
..............
..............

Generation = 78, Population = 0.
..............
..............
..............
..............
..............
..............
..............
..............
..............

Generation = 84, Population = 0.
..............
..............
..............
..............
..............
..............
..............
..............
..............

Generation = 90, Population = 0.
..............
..............
..............
..............
..............
..............
..............
..............
..............

*** Life<ConwayCell> 29x26 ***

Generation = 0, Population = 22.
..................*.......
......................*...
..........................
....................*.....
..........................
.*.*................*.....
..........................
.........*.......*........
......................*...
..........................
..........................
..........................
..........................
..........................
..........................
..........................
..........................
.............*..........*.
...*......................
.........*...*............
..........................
.................*..*.....
.............*............
.......*..................
........*.................
..........................
.....................*....
*.........................
................*.........

Generation = 49, Population = 0.
..........................
..........................
..........................
..........................
..........................
..........................
..........................
..........................
..........................
..........................
..........................
..........................
..........................
..........................
..........................
..........................
..........................
..........................
..........................
..........................
..........................
..........................
..........................
..........................
..........................
..........................
..........................
..........................
..........................

*** Life<ConwayCell> 7x26 ***

Generation = 0, Population = 24.
..*..................*....
............*.............
........*.....*...*...*...
*..*..*....*..............
............*....*...*....
......*....**......*.*....
...*.............**....**.

Generation = 37, Population = 4.
..........................
..........................
..........................
..........................
...........**.............
...........**.............
..........................

Generation = 74, Population = 4.
..........................
..........................
..........................
..........................
...........**.............
...........**.............
..........................

*** Life<ConwayCell> 9x5 ***

Generation = 0, Population = 21.
.*...
*.**.
....*
.**.*
..***
*.**.
*...*
..*.*
**.*.

Generation = 15, Population = 11.
.....
.....
.....
.***.
...*.
.*...
.*.*.
..*.*
..**.

Generation = 30, Population = 4.
.....
...**
...**
.....
.....
.....
.....
.....
.....

Generation = 45, Population = 4.
.....
...**
...**
.....
.....
.....
.....
.....
.....

Generation = 60, Population = 4.
.....
...**
...**
.....
.....
.....
.....
.....
.....

Generation = 75, Population = 4.
.....
...**
...**
.....
.....
.....
.....
.....
.....

Generation = 90, Population = 4.
.....
...**
...**
.....
.....
.....
.....
.....
.....

*** Life<ConwayCell> 24x16 ***

Generation = 0, Population = 22.
...........*....
....*........*..
....*...........
*..*............
................
...........*....
................
............*...
..*.............
................
....*.......*...
................
................
.......**..*....
.........*......
................
.......*.*....*.
.........*......
...........*.*..
.........*......
................
................
................
................

Generation = 49, Population = 9.
................
................
................
................
................
................
......**........
.....**.........
.......*........
................
................
................
................
................
................
................
................
.....**.........
.....**.........
................
................
................
................
................

*** Life<ConwayCell> 30x18 ***

Generation = 0, Population = 8.
..................
..................
..................
..........*.......
..................
..................
..................
..................
...............*..
..................
..................
..................
................*.
..................
....*.............
........*.........
..................
..................
..................
...*.*.......*....
..................
..................
..................
..................
..................
..................
..................
..................
..................
..................

Generation = 20, Population = 0.
..................
..................
..................
..................
..................
..................
..................
..................
..................
..................
..................
..................
..................
..................
..................
..................
..................
..................
..................
..................
..................
..................
..................
..................
..................
..................
..................
..................
..................
..................

Generation = 40, Population = 0.
..................
..................
..................
..................
..................
..................
..................
..................
..................
..................
..................
..................
..................
..................
..................
..................
..................
..................
..................
..................
..................
..................
..................
..................
..................
..................
..................
..................
..................
..................

*** Life<ConwayCell> 22x3 ***

Generation = 0, Population = 21.
*.*
**.
...
*.*
..*
*..
..*
*..
.*.
.*.
...
.*.
...
...
*.*
*..
...
..*
...
*..
..*
*.*

Generation = 47, Population = 0.
...
...
...
...
...
...
...
...
...
...
...
...
...
...
...
...
...
...
...
...
...
...

*** Life<ConwayCell> 16x16 ***

Generation = 0, Population = 2.
................
................
................
................
................
................
................
................
................
................
................
................
...*............
*...............
................
................

Generation = 45, Population = 0.
................
................
................
................
................
................
................
................
................
................
................
................
................
................
................
................

*** Life<ConwayCell> 14x22 ***

Generation = 0, Population = 22.
.*..................*.
..**..................
....*.......*.......*.
..*...............**..
......................
..................*...
.................*....
.......*.......*......
....*.................
........*.............
................*.....
...............*......
......**..............
......*.........*.....

Generation = 25, Population = 50.
.....*.**.............
....*...****..........
....*..*...*.......*..
...**..**..*......*.*.
..**..*****.......*.*.
.*******...........*..
.***.*................
.**.*.................
..*.*.................
...*..................
......................
......................
......**..............
......**..............

Generation = 50, Population = 23.
...........**......*..
...........**.....***.
..................**..
...................*..
...*................*.
...*..................
...*............**....
................**....
......................
......................
......................
.**...................
.**...................
......................

*** Life<ConwayCell> 13x2 ***

Generation = 0, Population = 12.
..
**
**
*.
*.
*.
.*
..
*.
..
*.
..
**

Generation = 28, Population = 4.
..
..
**
**
..
..
..
..
..
..
..
..
..

Generation = 56, Population = 4.
..
..
**
**
..
..
..
..
..
..
..
..
..

*** Life<ConwayCell> 10x21 ***

Generation = 0, Population = 24.
.............*.......
*.................*..
........*.**.........
....*...*............
..*....*.........*...
*...............*....
............**...*.*.
.*.............*.....
*..............*..*..
.*..*................

Generation = 1, Population = 13.
.....................
.....................
.........*...........
.......***...........
.....................
................***..
................*....
..............*.*.*..
**...................
.....................

Generation = 2, Population = 11.
.....................
.....................
.........*...........
........**...........
........*........*...
................**...
................*.*..
...............*.*...
.....................
.....................

Generation = 3, Population = 14.
.....................
.....................
........**...........
........**...........
........**......**...
................*.*..
...............*..*..
................**...
.....................
.....................

Generation = 4, Population = 15.
.....................
.....................
........**...........
.......*..*..........
........**......**...
...............**.*..
...............*..*..
................**...
.....................
.....................

Generation = 5, Population = 15.
.....................
.....................
........**...........
.......*..*..........
........**.....***...
...............*..*..
...............*..*..
................**...
.....................
.....................

Generation = 6, Population = 17.
.....................
.....................
........**...........
.......*..*.....*....
........**.....***...
..............**..*..
...............*..*..
................**...
.....................
.....................

Generation = 7, Population = 18.
.....................
.....................
........**...........
.......*..*....***...
........**....*..*...
..............*...*..
..............**..*..
................**...
.....................
.....................

Generation = 8, Population = 24.
.....................
.....................
........**......*....
.......*..*....***...
........**....*..**..
.............**..**..
..............***.*..
...............***...
.....................
.....................

Generation = 9, Population = 20.
.....................
.....................
........**.....***...
.......*..*....*..*..
........**...**......
.............*.....*.
.............*....*..
..............*..*...
................*....
.....................

Generation = 10, Population = 20.
.....................
................*....
........**.....***...
.......*..*....*.*...
........**...**......
............**.......
.............**...*..
.................*...
.....................
.....................

Generation = 11, Population = 20.
.....................
...............***...
........**.....*.*...
.......*..*....*.*...
........**..***......
............*........
............***......
.....................
.....................
.....................

Generation = 12, Population = 23.
................*....
...............*.*...
........**....**.**..
.......*..*..*.*.....
........**.****......
...........*.........
............**.......
.............*.......
.....................
.....................

Generation = 13, Population = 27.
................*....
..............**.**..
........**.....*.**..
.......*..**...**....
........**.*.**......
..........**..*......
............**.......
............**.......
.....................
.....................

Generation = 14, Population = 27.
...............***...
..............**..*..
........***.......*..
.......*...**..***...
........**...**......
.........***..*......
..............*......
............**.......
.....................
.....................

Generation = 15, Population = 37.
..............****...
.........*....**..*..
........****..*...*..
.......*...*******...
........**...**.*....
........***...**.....
..........***.*......
.............*.......
.....................
.....................

Generation = 16, Population = 28.
..............*.**...
........**...*....*..
........**.*......*..
.......*...*....**...
.......*...*.....*...
........*...*........
..........***.**.....
...........***.......
.....................
.....................

Generation = 17, Population = 30.
.................*...
........***.......*..
.......*.*..*.....*..
.......*...**...***..
.......**..**...**...
..........*.**.......
..........*...*......
..........*..**......
............*........
.....................

Generation = 18, Population = 34.
.........*...........
........***......**..
.......*.*..*.....**.
......**..*..*..*.*..
.......**.*.....*.*..
.........**.**.......
.........**.*.*......
...........*.**......
.............*.......
.....................

Generation = 19, Population = 31.
........***..........
..........*......***.
......**...*.......*.
......*...**......*..
......***.*.**.......
............**.......
.........*....*......
..........**..*......
............***......
.....................

Generation = 20, Population = 43.
.........**.......*..
.......**.**......**.
......**...*.....*.*.
.....*..***..........
......**.**..*.......
.......***.**.*......
..........***.*......
..........***.**.....
...........****......
.............*.......

Generation = 21, Population = 30.
........****......**.
......***..*.....*.*.
......*....*.......*.
.....*.....*.........
......*.....**.......
......**......*......
........*.....*......
...............*.....
..........*....*.....
.............**......

Generation = 22, Population = 36.
........****......**.
......*.*..**......**
.....**...***.....*..
.....**....*.........
.....***....**.......
......**......*......
.......*......**.....
..............**.....
...............*.....
..............*......

Generation = 23, Population = 29.
.......******.....***
.....**.*...........*
..........*........*.
....*.....*..*.......
............**.......
.....*..*.....**.....
......**.....*.......
................*....
...............*.....
.....................

Generation = 24, Population = 27.
......******.......**
......*.*.........*.*
.....*...*...........
...........***.......
............**.......
......**....*.*......
......**......**.....
.....................
.....................
.....................

Generation = 25, Population = 23.
......*.***........**
.....**.............*
............*........
...........*.*.......
..............*......
......**....*.**.....
......**.....***.....
.....................
.....................
.....................

Generation = 26, Population = 25.
.....***.*.........**
.....***.*.........**
............*........
............**.......
............*.**.....
......**.............
......**.....*.*.....
..............*......
.....................
.....................

Generation = 27, Population = 24.
.....*.*...........**
.....*.*...........**
......*.....**.......
...........**.*......
............*.*......
......**.....*.*.....
......**......*......
..............*......
.....................
.....................

Generation = 28, Population = 25.
...................**
.....*.*...........**
......*....***.......
...........*..*......
...........**.**.....
......**.....*.*.....
......**.....***.....
.....................
.....................
.....................

Generation = 29, Population = 24.
...................**
......*.....*......**
......*....***.......
..........*...**.....
...........**..*.....
......**........*....
......**.....*.*.....
..............*......
.....................
.....................

Generation = 30, Population = 29.
...................**
...........***.....**
...........****......
..........*...**.....
...........*..***....
......**....*.***....
......**......**.....
..............*......
.....................
.....................

Generation = 31, Population = 19.
............*......**
...........*..*....**
..........*....*.....
..........*.....*....
...........*.........
......**.............
......**........*....
..............**.....
.....................
.....................

Generation = 32, Population = 16.
...................**
...........*.......**
..........**...*.....
..........**.........
.....................
......**.............
......**.......*.....
...............*.....
.....................
.....................

Generation = 33, Population = 13.
...................**
..........**.......**
............*........
..........**.........
.....................
......**.............
......**.............
.....................
.....................
.....................

Generation = 34, Population = 11.
...................**
...........*.......**
............*........
...........*.........
.....................
......**.............
......**.............
.....................
.....................
.....................

Generation = 35, Population = 10.
...................**
...................**
...........**........
.....................
.....................
......**.............
......**.............
.....................
.....................
.....................

Generation = 36, Population = 8.
...................**
...................**
.....................
.....................
.....................
......**.............
......**.............
.....................
.....................
.....................

Generation = 37, Population = 8.
...................**
...................**
.....................
.....................
.....................
......**.............
......**.............
.....................
.....................
.....................

Generation = 38, Population = 8.
...................**
...................**
.....................
.....................
.....................
......**.............
......**.............
.....................
.....................
.....................

Generation = 39, Population = 8.
...................**
...................**
.....................
.....................
.....................
......**.............
......**.............
.....................
.....................
.....................

Generation = 40, Population = 8.
...................**
...................**
.....................
.....................
.....................
......**.............
......**.............
.....................
.....................
.....................

Generation = 41, Population = 8.
...................**
...................**
.....................
.....................
.....................
......**.............
......**.............
.....................
.....................
.....................

Generation = 42, Population = 8.
...................**
...................**
.....................
.....................
.....................
......**.............
......**.............
.....................
.....................
.....................

Generation = 43, Population = 8.
...................**
...................**
.....................
.....................
.....................
......**.............
......**.............
.....................
.....................
.....................

Generation = 44, Population = 8.
...................**
...................**
.....................
.....................
.....................
......**.............
......**.............
.....................
.....................
.....................

Generation = 45, Population = 8.
...................**
...................**
.....................
.....................
.....................
......**.............
......**.............
.....................
.....................
.....................

Generation = 46, Population = 8.
...................**
...................**
.....................
.....................
.....................
......**.............
......**.............
.....................
.....................
.....................

Generation = 47, Population = 8.
...................**
...................**
.....................
.....................
.....................
......**.............
......**.............
.....................
.....................
.....................

Generation = 48, Population = 8.
...................**
...................**
.....................
.....................
.....................
......**.............
......**.............
.....................
.....................
.....................

Generation = 49, Population = 8.
...................**
...................**
.....................
.....................
.....................
......**.............
......**.............
.....................
.....................
.....................

Generation = 50, Population = 8.
...................**
...................**
.....................
.....................
.....................
......**.............
......**.............
.....................
.....................
.....................

Generation = 51, Population = 8.
...................**
...................**
.....................
.....................
.....................
......**.............
......**.............
.....................
.....................
.....................

Generation = 52, Population = 8.
...................**
...................**
.....................
.....................
.....................
......**.............
......**.............
.....................
.....................
.....................

Generation = 53, Population = 8.
...................**
...................**
.....................
.....................
.....................
......**.............
......**.............
.....................
.....................
.....................

Generation = 54, Population = 8.
...................**
...................**
.....................
.....................
.....................
......**.............
......**.............
.....................
.....................
.....................

Generation = 55, Population = 8.
...................**
...................**
.....................
.....................
.....................
......**.............
......**.............
.....................
.....................
.....................

Generation = 56, Population = 8.
...................**
...................**
.....................
.....................
.....................
......**.............
......**.............
.....................
.....................
.....................

Generation = 57, Population = 8.
...................**
...................**
.....................
.....................
.....................
......**.............
......**.............
.....................
.....................
.....................

Generation = 58, Population = 8.
...................**
...................**
.....................
.....................
.....................
......**.............
......**.............
.....................
.....................
.....................

Generation = 59, Population = 8.
...................**
...................**
.....................
.....................
.....................
......**.............
......**.............
.....................
.....................
.....................

Generation = 60, Population = 8.
...................**
...................**
.....................
.....................
.....................
......**.............
......**.............
.....................
.....................
.....................

Generation = 61, Population = 8.
...................**
...................**
.....................
.....................
.....................
......**.............
......**.............
.....................
.....................
.....................

Generation = 62, Population = 8.
...................**
...................**
.....................
.....................
.....................
......**.............
......**.............
.....................
.....................
.....................

Generation = 63, Population = 8.
...................**
...................**
.....................
.....................
.....................
......**.............
......**.............
.....................
.....................
.....................

Generation = 64, Population = 8.
...................**
...................**
.....................
.....................
.....................
......**.............
......**.............
.....................
.....................
.....................

Generation = 65, Population = 8.
...................**
...................**
.....................
.....................
.....................
......**.............
......**.............
.....................
.....................
.....................

Generation = 66, Population = 8.
...................**
...................**
.....................
.....................
.....................
......**.............
......**.............
.....................
.....................
.....................

Generation = 67, Population = 8.
...................**
...................**
.....................
.....................
.....................
......**.............
......**.............
.....................
.....................
.....................

Generation = 68, Population = 8.
...................**
...................**
.....................
.....................
.....................
......**.............
......**.............
.....................
.....................
.....................

Generation = 69, Population = 8.
...................**
...................**
.....................
.....................
.....................
......**.............
......**.............
.....................
.....................
.....................

Generation = 70, Population = 8.
...................**
...................**
.....................
.....................
.....................
......**.............
......**.............
.....................
.....................
.....................

Generation = 71, Population = 8.
...................**
...................**
.....................
.....................
.....................
......**.............
......**.............
.....................
.....................
.....................

Generation = 72, Population = 8.
...................**
...................**
.....................
.....................
.....................
......**.............
......**.............
.....................
.....................
.....................

Generation = 73, Population = 8.
...................**
...................**
.....................
.....................
.....................
......**.............
......**.............
.....................
.....................
.....................

Generation = 74, Population = 8.
...................**
...................**
.....................
.....................
.....................
......**.............
......**.............
.....................
.....................
.....................

Generation = 75, Population = 8.
...................**
...................**
.....................
.....................
.....................
......**.............
......**.............
.....................
.....................
.....................

Generation = 76, Population = 8.
...................**
...................**
.....................
.....................
.....................
......**.............
......**.............
.....................
.....................
.....................

Generation = 77, Population = 8.
...................**
...................**
.....................
.....................
.....................
......**.............
......**.............
.....................
.....................
.....................

Generation = 78, Population = 8.
...................**
...................**
.....................
.....................
.....................
......**.............
......**.............
.....................
.....................
.....................

Generation = 79, Population = 8.
...................**
...................**
.....................
.....................
.....................
......**.............
......**.............
.....................
.....................
.....................

Generation = 80, Population = 8.
...................**
...................**
.....................
.....................
.....................
......**.............
......**.............
.....................
.....................
.....................

Generation = 81, Population = 8.
...................**
...................**
.....................
.....................
.....................
......**.............
......**.............
.....................
.....................
.....................

Generation = 82, Population = 8.
...................**
...................**
.....................
.....................
.....................
......**.............
......**.............
.....................
.....................
.....................

Generation = 83, Population = 8.
...................**
...................**
.....................
.....................
.....................
......**.............
......**.............
.....................
.....................
.....................

Generation = 84, Population = 8.
...................**
...................**
.....................
.....................
.....................
......**.............
......**.............
.....................
.....................
.....................

Generation = 85, Population = 8.
...................**
...................**
.....................
.....................
.....................
......**.............
......**.............
.....................
.....................
.....................

Generation = 86, Population = 8.
...................**
...................**
.....................
.....................
.....................
......**.............
......**.............
.....................
.....................
.....................

Generation = 87, Population = 8.
...................**
...................**
.....................
.....................
.....................
......**.............
......**.............
.....................
.....................
.....................

Generation = 88, Population = 8.
...................**
...................**
.....................
.....................
.....................
......**.............
......**.............
.....................
.....................
.....................

Generation = 89, Population = 8.
...................**
...................**
.....................
.....................
.....................
......**.............
......**.............
.....................
.....................
.....................

Generation = 90, Population = 8.
...................**
...................**
.....................
.....................
.....................
......**.............
......**.............
.....................
.....................
.....................

Generation = 91, Population = 8.
...................**
...................**
.....................
.....................
.....................
......**.............
......**.............
.....................
.....................
.....................

Generation = 92, Population = 8.
...................**
...................**
.....................
.....................
.....................
......**.............
......**.............
.....................
.....................
.....................

Generation = 93, Population = 8.
...................**
...................**
.....................
.....................
.....................
......**.............
......**.............
.....................
.....................
.....................

Generation = 94, Population = 8.
...................**
...................**
.....................
.....................
.....................
......**.............
......**.............
.....................
.....................
.....................

Generation = 95, Population = 8.
...................**
...................**
.....................
.....................
.....................
......**.............
......**.............
.....................
.....................
.....................

Generation = 96, Population = 8.
...................**
...................**
.....................
.....................
.....................
......**.............
......**.............
.....................
.....................
.....................

Generation = 97, Population = 8.
...................**
...................**
.....................
.....................
.....................
......**.............
......**.............
.....................
.....................
.....................

Generation = 98, Population = 8.
...................**
...................**
.....................
.....................
.....................
......**.............
......**.............
.....................
.....................
.....................

Generation = 99, Population = 8.
...................**
...................**
.....................
.....................
.....................
......**.............
......**.............
.....................
.....................
.....................

*** Life<ConwayCell> 13x25 ***

Generation = 0, Population = 35.
.....................**..
*................*...*...
..*...*.*.....*..........
......*....*..**.........
....*......*.............
...*.....*...............
....................*....
........*...............*
*............**..........
.........................
.*.........**....*....*..
...*...*.......*....*....
..*.........*...........*

Generation = 50, Population = 8.
.....................**..
.....................**..
..............**.........
..............**.........
.........................
.........................
.........................
.........................
.........................
.........................
.........................
.........................
.........................
