*** Life<Cell> 56x46 ***

Generation = 0, Population = 19.
----------------------------------------------
-----------0----------------------------------
-----0----------------------------------------
----------------------------------------------
----------------------------------------------
----------------------------------------------
----------------------------------------------
----------------------------------------------
----------------------------------------------
--------------------------------------0-------
----------------------------------------------
----------------------------------------------
----------------------------------------------
----------------------------------------------
----------------------------------------------
----------------------------------------------
----------------------------------------------
----------------------------------------0-----
----------------------------------------------
----------------------------------------------
----------------------------------------------
----------------------------------------------
----------------------------------------------
----------------------------------------------
----------------------------------------------
-0-----------------0--------------------------
----------------------------------------------
----------------------------------------------
----------------------------------------------
----------------------------------------------
----------------------------------0-----------
----------------------------------------------
----------------------------------------------
----------------------------------------------
------------------------0---------------------
----------------------------------------------
----------------------------------------------
---------------------0------------------------
--------------------------------------------0-
----------------------------------------------
----------------------------------------------
----0--------0--------------------------------
----------------------------------0-----------
----------------------------------------------
----------------------------------------------
------------------0---------------------------
----------------------------------------------
----------------------------------------------
----------------------------------------------
----------------------------------------------
----------------------------------------------
-----------------0---------0------------------
-------0----------------------0---------------
--------------------------------------0-------
----------------------------------------------
----------------------------------------------

Generation = 2, Population = 73.
-----0----------------------------------------
---------0---0--------------------------------
---0---0--------------------------------------
-----------0----------------------------------
-----0----------------------------------------
----------------------------------------------
----------------------------------------------
--------------------------------------0-------
----------------------------------------------
------------------------------------0---0-----
----------------------------------------------
--------------------------------------0-------
----------------------------------------------
----------------------------------------------
----------------------------------------------
----------------------------------------0-----
----------------------------------------------
--------------------------------------0---0---
----------------------------------------------
----------------------------------------0-----
----------------------------------------------
----------------------------------------------
----------------------------------------------
-0-----------------0--------------------------
----------------------------------------------
---0-------------0---0------------------------
----------------------------------------------
-0-----------------0--------------------------
----------------------------------0-----------
----------------------------------------------
--------------------------------0---0---------
----------------------------------------------
------------------------0---------0-----------
----------------------------------------------
----------------------0---0-------------------
---------------------0------------------------
------------------------0-------------------0-
-------------------0---0----------------------
------------------------------------------0---
----0--------0-------0------------------------
----------------------------------0---------0-
--0---0----0---0------------------------------
--------------------------------0---0---------
----0--------0----0---------------------------
----------------------------------0-----------
----------------0---0-------------------------
----------------------------------------------
------------------0---------------------------
----------------------------------------------
-----------------0---------0------------------
-------0----------------------0---------------
---------------0---0-----0---0--------0-------
-----0---0------------------0---0-------------
-----------------0---------0--------0---0-----
-------0----------------------0---------------
--------------------------------------0-------

Generation = 4, Population = 74.
-----0----------------------------------------
-------1---0---0------------------------------
-0-------1------------------------------------
----------------------------------------------
----------------------------------------------
-----------0--------------------------0-------
-----0----------------------------------------
----------------------------------------------
----------------------------------------------
----------------------------------0-------0---
----------------------------------------------
----------------------------------------------
----------------------------------------------
--------------------------------------0-0-----
----------------------------------------------
----------------------------------------------
----------------------------------------------
------------------------------------0-------0-
----------------------------------------------
----------------------------------------------
----------------------------------------------
-0-----------------0--------------------0-----
----------------------------------------------
----------------------------------------------
----------------------------------------------
-0---0---------0-------0----------------------
----------------------------------0-----------
----------------------------------------------
----------------------------------------------
-0-----------------0--------------------------
------------------------0-----0-------0-------
----------------------------------------------
----------------------------------------------
---------------------0------------------------
--------------------0-------0-----0---------0-
----------------------------------------------
----------------------------------------------
----0--------0---0-------0--------------------
------------------------0---------0-----0---0-
----------------------------------------------
----------------------------------------------
0-------00-------00--0------------------------
------------------------------0-------0-----0-
----------------------------------------------
----------------------------------------------
----0--------00-------0-----------------------
----------------------------------0-----------
-----------------1---------0------------------
-------0----------------------0---------------
------------------1-------------------0-------
----------------------------------------------
-------------0-------0-0-------0--------------
---0-------0--------------0-------0-----------
----------------------------------0-------0---
----------------------------------------------
-----------------0---------0----------0-------

Generation = 6, Population = 259.
-0-0-0-1-0------------------------------------
-----1-----------0----------------------------
---0-0-1---1----------------------------------
-------0-------0----------------------0-------
-0---0---0------------------------------------
---------0---0----------------------0---0-----
---0---0--------------------------------------
-----------0----------------------0---0---0---
-----0----------------------------------------
--------------------------------0---0---0---0-
----------------------------------------------
----------------------------------0---0-0-0---
----------------------------------------------
------------------------------------0-0-0-0---
----------------------------------------------
------------------------------------0-0-0---0-
----------------------------------------------
----------------------------------0---0---0---
----------------------------------------------
-0-----------------0----------------0---0---0-
----------------------------------------------
---0-------------0---0----------------0---0---
----------------------------------------------
-----0---------0---0---0----------------0-----
----------------------------------0-----------
-------0-----0---0---0---0--------------------
--------------------------------0---0---------
-----0---------0---0---0----------------------
------------------------0-----0---0---0-------
---0-------------0---0------------------------
----------------------0---0-0---0---0---0-----
-0-----------------0-0------------------------
--------------------0---0---0-0---0---0-----0-
-------------------0---0----------------------
------------------0---0---0---0-0---0-----0---
----0--------0---0---0---0--------------------
--------------------0---0---0-----------0-----
--0---0----0-------0---0---0------------------
----------------------0---0-----0---0-0-------
0---0---00---0----0--0---0--------------------
------------------------0-----0---0---0-0-----
0-0---01--10---01---1--0----------------------
----------------------------0---0---0---0-0---
0---0---00---00--00--00-----------------------
------------------------------0---0---0-----0-
--0---0----01--100--0---0--0------------------
-------0----------------------0-0---0---------
----0--------000--10--0--0---0--------0-------
-----0---0------------------0---0-0-----------
-------------0--01--00-0---0---0----0---0-----
---0---0---0--------------0---0---0-----------
-----------1---0--00-0-0-0---0---01---0---0---
-0---0---0---1----------0---0---0---0---------
-------------0---0---0-0---0---00---0-0-0---0-
---0-------0--------------0-------1-----------
---------------0-0-0-----0-0-0----0-0-0-0-0---

Generation = 8, Population = 73.
----------------------------------------------
---0---------------0------------------0-------
-0-----.-----0--------------------------------
----------------------------------------------
-----0----------------------------------------
-----------0----------------------------------
----------------------------------------------
----------------------------------------------
----------------------------------------------
-----------0------------------0---------0-----
-----0----------------------------------------
----------------------------------------------
----------------------------------------------
----------------------------------------------
----------------------------------------------
----------------------------------------------
----------------------------------------------
-0-----------------0------------0-----0-----0-
----------------------------------------------
----------------------------------------------
----------------------------------------------
----------------------------------------------
----------------------------------0-----------
----------------------------------------------
----------------------------------------------
-----0---0-0---------------0------------0-----
------------------------0---------------------
----------------------------------------------
----------------------------------------------
---------------------0------------------------
--------------------------0---------------0-0-
----------------------------------------------
----------------------------------------------
-0--0--------0-----0--------------------------
----------------0---------------0-0-----------
----------------------------------------------
----------------------------------------------
-------------0----1----------0----------------
----------------------------------0-0---0-----
----------------------------------------------
----------------------------------------------
--0--1-.--.-1---.----1------------------------
------------------------0-0---------------0---
-----------------*---------0------------------
-------0----------------------0---------------
----------1-.--.-----1----1-----------1-------
--------------------------------------------0-
------------------.---------------------------
----------------------------------------------
----0--------0---.----------------------------
----------------------------------*-----------
---------1-.-------*-----0---------1--0-------
-------0-----.-1------0-------0-------0-------
-----------------01--------0--1---------------
----------------------------------.-----------
----------------------------------------------

Generation = 10, Population = 258.
-0-----------0--------------------------------
-1---1-----------0---0--------------0---0-----
---1-1-.---1---0------------------------------
---0-------0-------0------------------0-------
-0-0---0-----0--------------------------------
---------1---0--------------------------------
-----0----------------------------------------
------------------------------0---------0-----
-----0----------------------------------------
---------0---0--------------0---0-----0---0---
---0---0--------------------------------------
-----------0------------------0---------0-----
-----0----------------------------------------
----------------------------------------------
----------------------------------------------
-0-----------------0------------0-----0-----0-
----------------------------------------------
---0-------------0---0--------0---0-0---0-0---
----------------------------------------------
-0-----------------0------------0-----0-----0-
----------------------------------0-----------
----------------------------------------------
--------------------------------0---0---------
-----0---0-0---------------0------------0-----
------------------------0---------0-----------
---0-----0-0-0-----------0---0--------0---0---
----------------------0---0-------------------
-----0---0-0---------0-----0------------0-----
------------------------0-0---------------0-0-
-------------------0---0----------------------
------------------------0---0-----------0-0-0-
-0--0--------0-----0-0------------------------
----------------0---------0-----0-0-------0-0-
--11--0----0---0-0---0------------------------
--------------0---0-----------0-0-0-0---------
-0--0-------------00---------0----------------
----------------0---------------0---0---0-----
-----------0---00---0------0---0--------------
--------------------------------0-0-0-----0---
--0--0------00----0--0-------0----------------
------------------------0-0-------0-0---0-0---
0--11--.--.---0-.1-0---0---0------------------
-------0--------------0-0-0-0-0---------0---0-
--0--0----0-0--0-.-0-----00--0--------0-------
-----0---0--------------0-1-0---0---------0-0-
--------0---.--.-1-0---00--10-------0---0-----
-------0----------------------0-----------0---
----0-----0--1----.--0----0-----------0-------
----------------------------------0---------0-
--0---0--0-0---0-.-0-----0---------0--0-------
-------0-------0------0-------0-0-.-0-1-------
----0--1---.-0----*.-0-0------1--1--11--0-----
-----0---1---.---1--0---0---0---1-1-1---0-----
---------0-----11-.-0-------11.-0--0--1-------
-------0-------0------0-------1---.---0-------
-----------------00--------0--0---------------

Generation = 12, Population = 284.
-*---*-------0--------------------------------
-.-1-.-1---1---1---0---0----------0---0---0---
-1-.-.-*-1-.-----1----------------------------
----------------------------------------------
-0-------*------------------------------------
---1---1---0---0---0----------0-------0-0-----
-0---0-------1--------------------------------
----------------------------------------------
-----0----------------------------------------
-------1---0---0----------0-------0-0-------0-
-0-------1------------------------------------
----------------------------------------------
----------------------------------------------
-0---------0-------0----------0-0-----0-0---0-
-----0----------------------------------------
----------------------------------------------
----------------------------------------------
-0---0---------0-------0----0-----0-0---0-0-0-
----------------------------------1-----------
----------------------------------------------
----------------------------------------------
-0---0---0-0-------0-------0----1-----0-0---0-
------------------------0-----0-------0-------
----------------------------------------------
----------------------------------------------
-0---0-0-0---0-0-----0-0-------0----0-------0-
--------------------0-----0-0-----0-------1-0-
----------------------------------------------
----------------------------------------------
-0--00---0-0-0---0-0-----0-0------------1-----
----------------0-----0-0-----0-0-0---0-0---0-
----------------------------------------------
----------------------------------------------
01..-1--00---0-0-00--0-0-----0----------------
------------0-------0-----0-0-0---0---0-0-0-0-
----------------------------------------------
----------------------------------------------
-00-00---0--101--1-1-10--0-------0------------
----------------1-------0-0---0---0-0-0-0-0-0-
-------0--0------1---------0------------------
----------------0-------------0---------------
01-..*-.1-.-11-*.-1--1---01--0--------0-------
-------0--------0---0-0-----0-0---0-0-1-0---0-
-------1--0-0*---.---1-0-------0--------------
---0-------0--------------.-------0-----------
--0-010---1-.1-.-1---11--1-.--1---0-------0---
------------------------1-1-------0-----1-0-0-
---------1--1----1*1-----1-1-------0--0-------
---------------1------0---------------0-------
0-------1000-----.*--1----10--1-------*-------
-------------1-----1----------*---.---.-----0-
-----0-.-*-*-0-1--*.00-0-----1.1--1-..-1--0---
---0-----.-00*0*--0-------------.---.-----0---
----0------0-11-*-.--110--0--..*--1---.-------
-------------0----------------.---.-----------
---------0-------**1-----0-0--*----0--1-------

Generation = 14, Population = 618.
-*---.---0-1-0-1-0----------------------------
-.-11.1.---1-------------0------0-----------0-
--1*0*1.0-1*00-1---1--------------------------
---0---*---1-----------0------0---0-----0-0---
---*-0---.-1-1---0----------------------------
-0-------------------0------0---0---0-0-0-0---
-0---0-1-0-1---1------------------------------
---0---------------0------0---0---0-0-0-0---0-
---0-0-1-0---0--------------------------------
-----1-----------0------0---0---0-0-0-0---0---
---0-0-1---1----------------------------------
-1-----0-------0---0------0---0-0-0-0-0-0-----
-1---0---0------------------------------------
---0-----0---0---0---0------0-0-0-0-0-0-0-----
---0---0--------------------------------------
-----1-----0---0---0---0----0-0-0-0-0-0---0---
-----1----------------------------1-----------
-------0-----0---0---0---00---0-0-*-0---0---0-
--------------------------------0-.-1---------
---------0-0---0---0---0---00---0-1-0-0---0---
------------------------0-----0---0---1-------
---------0-0-0---0---0---0---01---0-0-*-0-----
----------------------0---0-0---1---0---1-----
-------0---0-0-0---0-0-0---0---00---0-1-0-----
--------------------0---0-0-0-0---0---0---0-1-
-----0---0---0-0-0-0-0-0-0---0---01---0---1---
------------------0---0-0-0-0-0-0---1---0-1-*-
----0--0---0---0-0-0-0-0-0-0---0----0---0---1-
----------------0---0-0-0-0-0-0-0-----0-1-0---
--1---1--0---0---0-0-0-0-0-0-0--------1-.-0---
--------------0---0-0-0-0-0-0-0---0---0-*-----
0---0---0--0---0--00-0-0-0-0-0----------1-----
--0---------0---0---0-0-0-0-0---0---------0---
*.*.--1---1--0--0*--00-0-0-0---0--------------
--0-------0---0---*---0-0-0---0-------0-----0-
0-0-0---0---1-00--01--00-0---0---0------------
------------1---1---0---0---0-------0---------
1-*-*-10----.-.-0---0.--0------0---0----------
--------------1-1-0---1-0-0---0---0---------0-
0-0-00------1-0--11---0--00------0----1-------
----0--1------00--1-0-0-0-1-----0---------0---
*.1...*.--.*.*-.*--111-01-.10-------1---1-----
---001---0-0-0000---0-0-0-*-0---------.-0-----
000-011.-*-1*.---.10-1*0-11---0--00---1---0---
-0---*-1-0--0---0---0-1-1-.-1-1-0-----0---1---
0-01--*--11-.--.-1101..*01-.0--1---10-1-1---1-
---0-------01--0--1-----1-1-0---0-*-0---1---0-
0-0-0000111--*0*1...1010--1--0---00-11*-1-1---
------------------010-----1---1---0-0-0---0---
0-0--001*00----*-**--1--0-.*--.10--001.-0-0---
---0--------1.1*--11-00-----0-.-00.0-0.1------
0--11--*1.0.-01.-1..-*---0---1*-1*--..--*1--1-
-0---1--0*-*0.*.-**-*-----------.---.---1-----
--0--10-----1.1-.-.0-.-----11...*1-11-.0--1---
---0--------1*0--11----------0*1-0.1------0---
----0--0-0---1001...1-0---0-11*100-0111-0-----

Generation = 16, Population = 313.
-.1-1*111-0.0---------------------------------
0.-1-.*.11-1-0-------------0------------0-----
0*..-.1.0-..0-0------0------------------------
----0--*0--1-0--------------------------------
---*-0110.1.0---------------------------------
-------*---0--------------------------0-------
-----0-1-0------------------------------------
----------------------------------------------
----------------------------------------------
-0-----------------0--0---------------0-------
-------.--------------------------------------
-.--------------------------------------------
-.---0----------------------------------------
-----------0----------------------------------
----------------------------------0-----------
-----.----------------------------------------
-----.----------------------------1-----------
-----------0------------1--------0.0*---------
-----0------------------0---------*-----------
----------------------------------.-----------
--------------------------------------1-------
---------------------0---------------0.0------
--------------------------------.-----1-----0-
--------------------------------------.-------
----------------------------------------------
---01------------0-----------------1--*-----1-
----------------------------------1-.-----.0.1
--------------------------------------------.-
----------------------------------------.-----
------------------1---------------------.-----
--1---------------*--------------------0.11---
----------------------------------------.-----
0---1-----------------------------------------
....------.------.----------------------0-----
0---1---1---------.---------------------0-----
-------1--1-.-0--1-.-1-----0------------------
--0---------.-1-.-------------0---------------
--.-.-.--0-0.-.--*-*-.-1-------------00-------
----0--1----1-*0.-----.-----0---0-------------
---0--1---011100-..--1------------------------
--01*-------1----0.-*-----.-------------------
..1.....1-*..*1**--.-.--.-..-1--------1-.-----
--1**----*-0---0-11-*-----.----------0.1--1---
---1-1..-*0-*.*--*.*-..--.------------.-------
-----*---000-1010-0---.0.-.1.-.-----------.---
--*--1*01-*1.--.0**--...0.1.0-----0.--*-.---.-
------01--1-*-0*-0.00--1.-.0------.---0-------
-------011*--*0...*.--1-----------*-*-*-.-.---
--------0--0--1-10010-----.0-----0-100-10-----
-------1.0**1--.-*.1-.----..0-.*0-00*-.000----
----------0*1.-.11-.-*-11--0--*0--.-*-.--11---
-0--.--*1*0.1-..1...-*--1----..--*-*.*11..-1--
-----.0--*-*-...1.*-*-------*---*0-1.0-0*-----
-------1-*---.1*.-.0-*1----....*.1--.-.00-.---
--------010-1.*--**--------110.-0-.1-1*-----0-
----0--------1*-***.1-------**..0---1-*-------

Generation = 18, Population = 513.
1.11**.1-10.0--------0------------------------
**-1-..**.-1---1---------0---0--------0---0---
0*..***.-1.*0-0-0--1---0----------------------
1----01**--1---0-----------0----------0-0-----
0--*1*---*1.---------0------------------------
----00-.0*-0------------------------0---0-----
------0.001*0---------------------------------
-0-----1---0-------0--0-----------------------
-----1-1-0------------------------------------
---0-------------0--11--0-----------0---0-----
-----1-.--------------------------------------
-.---------0-------0--0---------------0-------
-.-0---0--------------------------0-----------
---------1---0--------------------------------
-----0--------------------------0-0-0---------
-----.------------------0--------0-00---------
-----.------------------1-------0-------------
---------0---0--------0-.-1----0-0.-.-0-------
---0---0--------------0---0-----00.0--0-------
-----------0---------0--1---------.-10-0------
-----0------------------0-----------0-1-0---0-
-------------------0---0-----------0-0.0-0----
--------------------------------.---0---1-0---
---00------------0---0-------------0--.-----1-
----------------------------------1--------0*0
-01-.10--------0---0-------------1--11.-0-----
--------------------------------0---.-----.-*-
---00------------00----------------0--0---0-*-
--0---------------1---------------0----0.010-0
----------------0-.-0-------------------*-----
----------------01.10----------------0-0...10-
----------------------------------------.-----
--1-1-0-0---------0--------------------0100---
....---0--.---0--.---1-----0----------0---0---
--0-1-----*---*---.-----------0-------0---0---
-----0--0--1.--*11-*-----0---0-------00-1-----
--0----10---.-.1.-----------------------0-----
-1.0.1*--0--.0.*-*-*-.---0-0-------01--10-----
---0-10--11-*1.-.1--0-.---1---0---0-----------
-00-1*--1----1--1**----------0-------0--------
01-*.11--0--.--100.1.-1---.-0---0----0-0--0---
**1*....-***..1*.**.1.--.-..---0----1---.-----
011**---0*000---11.1.-10--.0-------0-0*1*1--0-
-1-.-.*.-.-1*..1-*.*0..-0.1-00----1---.-------
--1--.-*00-0-.*--0--1-.-.-.1.0.----0-0-0--.---
0-.---.*.*.1.--*0**-**..0.-.0-1-0--.-1.1.---.-
----0-0.1--**-0*-*.**-01.-.--0---0*--1011-----
--0----0.1.01.*.....1----------0-1.-.-.-.-.---
-------1-11*0-.1*--*-11-0-.0-0-1-0----*10-----
-0---1-1.*..--1.-...1.--1-*.--..-1--*-*--01---
------0--1**..-.11-*-*-.--10--.0--.-.1.-0-.00-
---1.-0*-.-..-*.-**.1.-0.-0-1..--*-*.*-1**---0
-----.01-.1.0....**1.-101-0-.11-.-1*.--*.---0-
-0--0---1.0--.-*.-*-*..*---..*.*.**-.-.0-1.0--
-------0*.--1..1-.*------01*.-*1*0*11..0--1---
--0-0-00-1-00..-...*11----00**.*-11---.1------

Generation = 20, Population = 641.
.**.****-*-*0---0----0------------------------
..1.*.*...-.---1-0-----1---0---0----0-0-0---0-
-**.....1-..-1--0*1------1--------------------
-00---*..10.---0-0----------------------------
---...-*-..*0-0-0-----------------------------
1101--0*-*-*-1-0---0--0----0------0---0-0-0---
0--0---.0-1***0------0------------------------
----0--.00-*-0--------------------------------
---*--0*0-1-0---------------------------------
-----1-*-------0--1-..-1--0-------0---0---0---
-----1-*-1------------------------0-----------
-.-1------------------------------------------
-.-------*------------------------0-----------
-------1---0---0---0--0-0--------0-01-0-------
-----0------------------1-----0---0-*-0-------
----0.0---------------------------**-1--------
---0-.-0----------------.-----0--1-11-1-------
-------1---0---0----01-1.*.-00-0--.-.1-10-----
-0---0---1----------0---*---0-00*-.--0*-----0-
------------------------.------0-1.-----------
--------------------------------0000--1---0---
---00------0------------00-------0--10.0-0-01-
-----0------------------0-------.---0-1---0110
-----------------------------------010.0*01-.-
----1---------------------------------0-10-*.-
1-.*..-10----0----1------------0--1-...---1-1-
--1-1-------------1-----------0---1-.-10--.-.*
--------------------------------------------.-
0---1------------0.1----------------0---*-.*1-
---01---------0--0.---0------------0---1*0*-1-
----0-0-0-----01-...-10-----------00-0-0*...--
-------0------0-1---10-----0----------00.1----
0---1---0-0---1--1-1----------0----------0----
....----1-.-0--1-.-----0------------01*-*---0-
0-0----1*-.-0-.-1-.---------0---0---0--1-1*-0-
-0---0----11*--*1*0.---1-0-----0--------.-----
0--0---*--0-.1*1.0--1-----0-------0-----------
-1.*.1*-0---.*..-.-.-.-1---0-0---00-.-*.010---
0---1*0*01*-...-.-----.-1---0---0---11-11-0---
---1*.-1-----.*-1..0-----1--------------0-----
0*0*.-.--*0-.101**.-*1111-.---0-------0-1-----
.****...1****.....*.1*0-*-..-1---0---1-0.1----
--*.**--*.----1-.*...1.-1-.-1---00--1**-..*1--
-*-.1...1.-.**.1-*..-*.1-.-0--*-------.-1-----
-1--0*-.00-0-***-0---0*0.-.-.**---10---*--.-0-
0-.1--..***-.1*.0..-.*.*0.-.-011001.1-*-.0--.-
--1-0-0.11**.--*1****1*..-.0---100*---0.*11---
-1--*---.*.**.*.....*01---1-001*0-*0.*.0.0.---
----01-11.1*0-.**--.1*.-*1*0-01.--*11-.-*0100-
--10-11..*..*--.-...1.1-.-.*01*.-.--.*.-**.010
------**-1..**1.*1-*-*-.*1.-0-.--0.*.**1-*.-*0
-0-1.--.-.0*.-.*-**.-.-*.---1**-*.-...11.*-*-0
-----.010..*0..*...*.1.-.-*-.-.0**1..-**.0-00-
----0---*.*--.-.*1*1....-1-...*...*-.0.-01.0--
-----0-0*.*-*.*.-**001---*...-.1.-.-*.*010----
01---0---1---..1*...-*1-00-****.*1-0*1.*---0--

*** Life<Cell> 69x7 ***

Generation = 0, Population = 5.
-------
-------
-------
-----0-
-------
-------
-------
-------
-------
-------
-------
-------
-------
-------
-------
-------
-------
-------
-------
-------
-------
-------
-------
-------
-------
-------
-------
-------
-------
-------
-------
0------
----0--
-------
-------
-------
-------
-------
-------
-------
-------
-------
-------
-------
-------
-------
0------
-------
-------
--0----
-------
-------
-------
-------
-------
-------
-------
-------
-------
-------
-------
-------
-------
-------
-------
-------
-------
-------
-------

Generation = 10, Population = 83.
-------
-----0-
-------
---0---
-------
-----0-
-------
-------
-------
-----0-
-------
---0---
-------
-----0-
-------
-------
-------
-------
-------
-------
-------
0------
----0--
0-0----
--0---0
0------
----0--
--1----
-------
--.-.--
10*0*--
.1.1*11
00*010-
11-10--
-000---
-------
0------
1------
.-0-0--
.------
1-1---0
----1--
-0*00--
-------
**.----
00.1---
-*..-**
-**---1
*01-1--
*.--*0-
*001---
1-*----
-------
*0-----
1-0----
--0----
0------
0---0--
-------
--0----
-------
-------
-------
-------
-------
-------
-------
-------
-------

*** Life<Cell> 24x2 ***

Generation = 0, Population = 16.
0-
-0
0-
0-
--
--
-0
00
-0
00
--
--
--
-0
00
-0
--
--
-0
--
0-
--
--
--

Generation = 5, Population = 27.
--
11
*1
*-
-*
-.
-.
--
-1
*-
-1
*-
-*
0*
..
11
1-
0*
*0
01
**
0-
0-
-0

Generation = 10, Population = 18.
.-
1.
.1
..
-.
-.
-*
**
-*
.-
0.
.-
**
-*
..
**
*.
**
..
..
**
--
-*
--

Generation = 15, Population = 12.
.-
-.
.-
..
-.
-.
-*
**
0.
**
-*
.1
..
-.
..
..
..
..
..
..
..
--
**
00

Generation = 20, Population = 10.
.-
-.
.-
..
-.
-.
-*
**
-.
**
-*
..
..
-.
..
..
..
..
..
..
..
10
**
--

Generation = 25, Population = 10.
.-
-.
.-
..
-.
-.
-*
**
-.
**
-*
..
..
-.
..
..
..
..
..
..
..
--
**
00

Generation = 30, Population = 10.
.-
-.
.-
..
-.
-.
-*
**
-.
**
-*
..
..
-.
..
..
..
..
..
..
..
10
**
--

Generation = 35, Population = 10.
.-
-.
.-
..
-.
-.
-*
**
-.
**
-*
..
..
-.
..
..
..
..
..
..
..
--
**
00

Generation = 40, Population = 10.
.-
-.
.-
..
-.
-.
-*
**
-.
**
-*
..
..
-.
..
..
..
..
..
..
..
10
**
--

*** Life<Cell> 33x1 ***

Generation = 0, Population = 14.
0
0
0
0
-
0
-
0
0
0
-
-
-
-
-
-
0
0
-
-
0
-
-
0
-
0
-
-
-
-
0
-
-

*** Life<Cell> 1x14 ***

Generation = 0, Population = 7.
0-000---00---0

Generation = 2, Population = 6.
-0--*1-1--1--0

Generation = 4, Population = 9.
--*1..01**-110

Generation = 6, Population = 2.
0-....--..1.--

Generation = 8, Population = 1.
0-....--..-.--

Generation = 10, Population = 1.
0-....--..-.--

Generation = 12, Population = 1.
0-....--..-.--

Generation = 14, Population = 1.
0-....--..-.--

Generation = 16, Population = 1.
0-....--..-.--

Generation = 18, Population = 1.
0-....--..-.--

Generation = 20, Population = 1.
0-....--..-.--

Generation = 22, Population = 1.
0-....--..-.--

Generation = 24, Population = 1.
0-....--..-.--

Generation = 26, Population = 1.
0-....--..-.--

Generation = 28, Population = 1.
0-....--..-.--

Generation = 30, Population = 1.
0-....--..-.--

Generation = 32, Population = 1.
0-....--..-.--

Generation = 34, Population = 1.
0-....--..-.--

Generation = 36, Population = 1.
0-....--..-.--

Generation = 38, Population = 1.
0-....--..-.--

Generation = 40, Population = 1.
0-....--..-.--

Generation = 42, Population = 1.
0-....--..-.--

*** Life<Cell> 10x61 ***

Generation = 0, Population = 29.
-----------------------0---00---------0----0-----------------
------------0-0------------------------0------0--------------
---------------------0---------------------------0-----------
-------------------------------------------------0-----------
----0---0----------------------------------------0-----------
---------------------------0----------0---------------0-----0
0---------0----0-0---0-------------------0----------0--------
------------0------------------------------------------------
---0---------------------------0-----------------------------
-------------------------------------------------------------

*** Life<Cell> 60x10 ***

Generation = 0, Population = 28.
--------0-
----------
----------
----------
----------
----------
----------
----0-----
0---------
-0--------
--------0-
0---------
----------
----------
----------
----------
----------
----------
---0------
0---------
0---------
---0------
-0--------
---0------
------0---
----0-----
-----0----
----0-----
----0-----
------0---
-----0-0--
-0--------
----------
----------
----------
----------
----------
----------
------0---
----------
----------
----------
0---------
----------
------0-0-
----------
----------
------0---
----0-----
----------
----------
----------
-0--------
----------
----------
----------
----------
----------
----------
----------

Generation = 11, Population = 245.
00-0.----0
-0------0-
-000.0-00-
**-0--0---
--*0------
--01--1-.-
--0--1*.*.
0----1-1.0
.*.-.0.0**
-*----0-.1
*--*.--0*-
*..-.*---*
.--*-----0
1-1*-----0
*.1*---00-
0--*1-*0-0
-*-*------
1-.1*000*0
..01*1-0*.
.1.*...*--
*....11-.-
*.-1---0--
..11.*1.10
1*--**1-*-
.--0**..-*
....*-*.--
--*..-*..0
-.--.--1*-
*....-.**1
-1.-.-.-.0
*.1.-*-1-*
0.1.-*00-1
-..*.1.1-0
0--**-1---
-0-.-.-..1
00----.---
--10.-.-*0
--00000-*-
-011**-*--
--0--0.01-
-0---**--0
-1--0---0-
01001-*-.0
--0-*0.-*-
-*****.--0
--.010*---
---1*-..--
--.*.-*0--
*.-*-1.---
-0--10-0-0
.**-----0-
--00*010--
-01-.*1*-.
00--10100-
---1.1-0-1
--000-001-
-0-0-0*00-
--0-0010--
---0-00---
----0-----

Generation = 22, Population = 229.
**11..1.*.
....*.1-.-
.*-1...*.*
...*.*...*
-*..*.*...
***..0....
...1-**...
.***....*.
.......-..
..1*.***..
...**.....
...**...-.
.1..*-.1--
..-...1.0.
.*.**.**--
.1-..**1*-
..-.-**1.-
--*.*.*...
.**.*.....
...*.*..11
...**....*
.*.**...-.
****...**-
*.**.*.1..
**-...**..
....*.**..
-*.***....
.**-..**.-
.*..*0*...
11.*.-.-.0
.*.**...*.
*.......-1
**..*....*
.**..*...*
......1*.*
.....-.*-*
*-*-...***
-0.-...***
..-...1*0.
-..1.*..*.
**.*.**-*0
..11*....-
-.*.*1*1..
..-*...*..
*.*.**.***
..*..*.1-*
..1......*
1...*-...*
...*-....-
.........1
*.*1.-0-.-
.-..***.**
*-*.......
***1*.*-.*
-*...*.1-.
---1**-0--
-01*.1*00-
111******1
*.-*-.1-10
-0**-**10-

Generation = 33, Population = 143.
..........
..........
.....***..
....*...*.
...*...**.
..**......
..*..*....
..**....**
..**....**
..**......
..........
...*......
.*.......1
.*....*..*
*........*
.......-..
..-*-..**-
.-....*...
*....*....
*....*...-
*...*.....
.***....-.
...*......
.**.......
*.**......
..*.*.....
.......*..
...*.***.-
....*..**.
......***-
....*....*
...**.***.
...**.....
..**......
..**....**
.....1....
*..-.....*
1.........
.**...*...
........*.
...*.***.1
....*...*.
...**1.*..
...**.**..
.....*....
..........
..**......
-.**......
*...1..**.
*.*...*..*
...*.*...*
*-*......*
*.**......
.*......**
-***......
*...*.*1.-
1*.......*
.......**-
**1..**1.-
....-..-.-

*** Life<Cell> 53x27 ***

Generation = 0, Population = 4.
---------------------------
---------------------------
---------------------------
---------------------------
---------------------------
---------------------------
---------------------------
---------------------------
---------------------------
---------------------------
---------------------------
---------------------------
---------------------------
---------------------------
---------------------------
---------------------------
---------------------------
---------------------------
---------------------------
---------------------------
---------------------------
---------------------------
---------------------------
---------------------------
---------------------------
---------------------------
---------------------------
---------------------------
---------------------------
---------------------------
---------------------------
--------------0------------
---------0-----------------
---------------------------
---------------------------
---------------------------
---------------------------
---------------------------
---------------------------
---------------------------
---------------------------
---------------------------
--------------------------0
---------------------------
---------------------------
---------------------------
-------------0-------------
---------------------------
---------------------------
---------------------------
---------------------------
---------------------------
---------------------------

*** Life<Cell> 18x27 ***

Generation = 0, Population = 25.
---------------------------
-------------0-----------0-
---------------------------
---------------------------
--0-00---------------------
-----0-------------0---0---
---------------------------
---------------0-----------
0---------------0----------
--------0-----------0------
--------0---0--------------
---------------------------
-----------------------0---
----------------0---0---0--
-------------0-------------
---------------------------
-0--0------------0---------
---0---------------0-------

Generation = 10, Population = 235.
----1-------0-0-0-0--------
---1-.01.10----0-00*--1--0-
--*0..11-*0-010-0------1---
-.0*1.0-1--0---000------00-
.*...*..---1**11---1-01*-1-
-.-*..*..1----1-.-*.*1*0-*1
-*--1-10*0-----110-0100.1--
0*00-.--*---.--0111*1---0-0
0100...**---1*11-*.1.*1*-1-
.01*-*.1--0-.-0--0..1-.*0..
.1-0*011.0*-..-*.*-*.11*01-
1--00--..-010.--.---0--110-
.1.*-**-.-1-*--.*-**0-0.-0-
1*1.--*0.1-1*011*-11-1***0-
0-0*0.**0---..00-00-0-0100-
0*..-.01*00-.-0-.*0--10-10-
0-..*1--**0-.-11-10-0*****1
--1.**--1-00-******.-0--**1

*** Life<Cell> 62x14 ***

Generation = 0, Population = 7.
--------------
--------------
--------------
--------------
--------------
--------0-----
--------------
--------------
--------------
--------------
--------------
--------------
--------------
--------------
--------------
----0---------
--------------
-0------------
--------------
--------------
--------------
--------------
-----------0--
--------------
--------------
--------------
--------------
--------------
-------------0
--------------
--------------
--------------
--------------
--------------
--------------
--------------
--------------
--------------
--------------
--------------
--------------
--------------
--------------
--------------
--------------
--------------
------0-------
--------------
--------------
--------------
--------------
--------------
--------------
--------------
--------------
--------------
--------------
--------------
--------------
--------------
--------------
----0---------

*** Life<Cell> 27x8 ***

Generation = 0, Population = 29.
0-----0-
----0-00
--------
-------0
--------
--------
--0-----
--------
--------
00------
0--0----
--------
--------
--------
-0----0-
-----0-0
--0-----
-------0
-0------
-0--0---
---0----
--------
-0------
-0-0---0
-----0--
-0--0--0
--------

Generation = 16, Population = 81.
.1.****-
*......*
.**-.1**
0..1-1.*
*1**--.*
**.-.1*.
**.*.*..
*-...-.-
1.....*.
*****.**
*-......
.**1....
*.-.-.**
*..--*.1
.....*.*
.-..*..*
-.*1.--*
.*.*...-
...*-..-
**-.....
*..--.--
*.*...*.
-.1-.*.*
-...*1**
**-....*
**....*-
..10..0.

Generation = 32, Population = 57.
*.*.****
*.*.....
*..-.*..
*..**.*.
*.*.....
***.....
.***...*
...**0*.
-.......
........
.-**....
**.**...
**..**..
*....**.
*..*..*.
*.**.*..
.*....-.
........
......**
......**
....-...
........
-.......
........
........
.**.***.
........

*** Life<Cell> 41x51 ***

Generation = 0, Population = 4.
----------------------------------------0----------
---------------------------------------------------
---------------------------------------------------
---------------------------------------------------
---------------------------------------------------
---------------------------------------------------
---------------------------------------------------
---------------------------------------------------
---------------------------------------------------
---------------------------------------------------
---------------------------------------------------
--------------0------------------------------------
---------------------------------------------------
---------------------------------------------------
---------------------------------------------------
---------------------------------------------------
---------------------------------------------------
---------------------------------------------------
---------------------------------------------------
---------------------------------------------------
---------------------------------------------------
---------------------------------------------------
---------------------------------------------------
---------------------------------------------------
---------------------------------------------------
---------------------------------------------------
---------------------------------------------------
---------------------------------------------------
---------------------------------------------------
---------------------------------------------------
---------------------------------------------------
-------------------------------------------------0-
-------0-------------------------------------------
---------------------------------------------------
---------------------------------------------------
---------------------------------------------------
---------------------------------------------------
---------------------------------------------------
---------------------------------------------------
---------------------------------------------------
---------------------------------------------------

Generation = 9, Population = 55.
-------------------------------0-0-------------0-0-
--------------------------------0---------------0--
--------------0------------------------------------
-------------0-0-----------------------------------
--------------0------------------------------------
----------------------------------------0----------
---------------------------------------0-0---------
---------------------------------------------------
---------------------------------------0-0---------
----------------------------------------0----------
------0---------------0----------------------------
-----0-0-------------0-0---------------------------
------0---------------0----------------------------
---------------------------------------------------
---------------------------------------------------
---------------------------------------------------
---------------------------------------------------
---------------------------------------------------
--------------0------------------------------------
-------------0-0-----------------------------------
--------------0------------------------------------
---------------------------------------------------
-------------------------------------------------0-
-------0----------------------------------------0-0
------0-0----------------------------------------0-
-------0-------------------------------------------
---------------------------------------------------
---------------------------------------------------
---------------------------------------------------
---------------------------------------------------
-----------------------------------------0---0-----
---------------0------------------------0-0-0-0----
--------------0-0------------------------0---0-----
---------------0-----------------------------------
---------------------------------------------------
---------------------------------------------------
---------------------------------------------------
---------------------------------------------------
-------------------------------------------------0-
-------0----------------------------------------0-0
------0-0----------------------------------------0-

Generation = 18, Population = 60.
----------------------0-0-0-----------------0-0-0--
--------------0------------------------------------
------------------------0---------------------0----
------------0---0----------------------------------
---------------------------------------------------
--------------0------------------------------------
---------------------------------------------------
---------------------------------------------------
---------------------------------------------------
0-----------------------------0--------------------
---------------------------------------------------
0-0-------------------------0---0------------------
----------------------------------------0----------
0-----------------------------0------------------0-
-------0------------------------------0-0-0--------
-----------------------------------------------0---
-----0---0----------------------------0-0-0--------
-------------------------------------------------0-
-------0--------------------------------0----------
---------------------------------------------------
---------------------------------------------------
---------------------------------------------------
---------------------------------------------------
---------------------------------------------------
---------------------------------------------------
--------------0------------------------------------
---------------------------------------------------
------------0---0----------------------------------
---------------------------------------------------
--------------0------------------0---0-------------
-------0---------------0---------------------------
-------------------------------0-------0-----------
-----0-0-0-----------0---0-------------------------
---------------------------------0---0-----------0-
-----0-0-0-------------0---------------------------
-----------------------------------------------0---
-------0-------------------------------------------
-------------------------------------------------0-
---------------------------------------------------
---------------------------------------------------
---------------------------------------------------

*** Life<Cell> 1x29 ***

Generation = 0, Population = 12.
000----0---00--0---0----0000-

*** Life<Cell> 21x11 ***

Generation = 0, Population = 15.
-----------
-----------
-----------
--------0--
-----------
---------0-
0----------
-----------
--0----0---
----------0
---0-------
---0-------
--0--------
---0---0---
---0-------
----0------
-----------
-----------
-----------
-----------
------0--0-

*** Life<Cell> 30x47 ***

Generation = 0, Population = 10.
-----------------------------------------------
----------0------------------------------------
-----------------------------------------------
--------------------0--------------------------
---------------------------------------------0-
-----------------------------------------------
-----------------------------------------------
-----------------------------------------------
-----------------------------------------------
-----------------------------------------------
----------------------------------0------------
---------0-------------------------------------
-----------------------------------------------
-----------------------------------------------
-----------------------------------------------
-----------------------------------------------
-----------------------------------------------
-----------------------------------------------
0---------------------------------0------------
-----------------------------------------------
-----------------------------------------------
-----------------------------------------------
---------------------------------------0-------
-----------------------------------------------
-----------------------------------------------
------0----------------------------------------
-----------------------------------------------
-----------------------------------------------
-----------------------------------------------
------------------------------0----------------

Generation = 17, Population = 333.
----0---0-0---------------0-----------.--------
0--0-1--1-*--------------0-0------0------------
-0----0---1---------------0------0-01--..------
1--0--.*1-1*-1---------------0.--0-0-0---------
0---0.1.1.*.1.0-------------0-0-0*.10-----.----
..--.--...*1-..--1-----------0---00----0-------
1-.--.--1.-00.0-------------.---------0-0--..--
--.--0-**.**1*11--.-------.------------0-------
-------*-*0*--0---00--------------------------.
----..-0*1--.*---0-10-----------------------00-
-----01--.*-----0--0-0--.0-----------------0**1
----01-0-000---1.-**-.0.1-0-------------0---00-
----1-**--------00---0---0----0------0-0-1-----
---0-1*----0-----1**1--------0-0------0-0-0----
--1-0*.1----------00---------------0-1-000-0---
-0.---.*10-0------..---------0-0-0--0*-*--0-0--
1-.--..11-**1-----------------0-0100.-*.---0-0-
---*-..0*..*.10-0-0------------0-*0101-.*-----0
1-1....1*-10--.----01-----0---0*101-1....1*-*..
-1--.**.*--1*-1-0-00-0---0.0-0-0--000--.*----00
*1--.1..*-1*--------0---0-1---0--1-1--..---01*0
0.1-.*--.-*--.----------.0.-*--------.----0-00-
11-1--1-.*------------0--.1.-----.1-..-1-0-0---
0.-*--*-.--------------0--.0-0------11-00-0----
.--0011*0-------------0---.-0-.1-----**0-0-----
..-.-1--11-----------0-0-----0.----011.--------
.0.-*-*-00------------0------..*-01-0----------
.**0-*--0-0-------------------.--0-01-*-1------
1-.-*----0----0---------------.10-0-----------0
**-*---------0-0-----------------0----1------0-

Generation = 34, Population = 433.
......*...*....01.1*-*.-10.1***..-..--...****-*
.....**.....-...*.-...--11****.01..-.-*.......*
.....*........-.*...*.-*.-1*......*...**.*.11-0
...-1...*.......-*..*.-01*-..**..**...*.....*-1
..-..............--*-0-..*1**...**...*.1...**.-
.**.**.........*..*.-1--...*.--.**..*-.*0-.-*.-
*.****-*.......*.*.....*-*.*......**1...*1.*..*
.-.**..*....*.1.*.....*-.*.1.*0-.1*.*.*-*.1****
*.*..-*...**.*.......-.....0.-....***.-.......*
-**.*.**..-.**00-*....1..*-...**....0*.*1...***
.*1-*******..*****1..**0.1*0*.-.*.-1.0*.**.*.*.
..*.-*.**.....1.*...*.*.......*.......*....*...
.-...*.....-..*....*..*.....***-*.....*-.....**
..-.*..*......--...*.*...*.....-*......**.*...*
.*...**..*.**1.....**-...*......****.......**.*
*-..-...**.**.......-...*-.-..*-..*.***..-...*-
...............-........**...1.-..-**.**.......
.........*....*.....***1-....*.....**.1.**.....
......**......*.--...*...-**......**....**..**.
...-..*..*....*-.....*....*...-.-*-*..**..**...
...........*-...-1.....**.*....-0***......**...
-.....*..*.*....-...*11....-...-11..-......*...
......*....****-.......-***..*......*....***..-
.......1.-***...1..0**.-..*......-.**.***10.***
...*-....*0*-*.0.-*.......*....--...-*.........
....**...*.......0-1...-..*......-*..**........
..*..*...**.*-****1*.---*****...-.****.*.*.1..*
..**.*......-**.**-..11*-*****..*....*...-.--*-
..*-*..1*.-..-**-*.**--.-.-**.**.**.1..*.-...-*
.........-*.*...-101-*1-.......**....1.1..***.1

*** Life<Cell> 31x51 ***

Generation = 0, Population = 28.
---------------------------------------------------
---------------------------------------------------
---------------------------------------------------
------------------------------------------0--------
---------------------------------------------------
---------------------------------------------------
---------------------------------------------------
---------------------------------------------------
-------------0-------------------------------------
--------0------------------------------------------
---------0-----0-----------------------------------
---------------------------------------------------
---0-0------------------------------------------0--
-------0-------------------------------------------
---------------------------------------------------
---------------------------------------------------
---------------------------------------------------
0-----------------0-------0-----------------------0
---------------------------------------------------
---------------------------------------------------
-----------------0------------------------------0--
--0-------------------0----------------------------
0----------0------------------------0--------------
------------------------------0-0------------------
-------------------------------------0------------0
---------------------------------------------------
---------------------0-----------------------------
-------------------0----------------0--------------
---------------------------------------------------
---------------0-----------------------------------
---------------------------------------------------

Generation = 2, Population = 107.
---------------------------------------------------
------------------------------------------0--------
---------------------------------------------------
----------------------------------------0---0------
---------------------------------------------------
------------------------------------------0--------
-------------0-------------------------------------
--------0------------------------------------------
---------0-0---------------------------------------
------0---0----------------------------------------
---0-0-0---0-----0------------------------------0--
-------00------------------------------------------
-0-0-0-1-0-----0------------------------------0---0
-----1---0-----------------------------------------
---0-0------------------------------------------0--
0------0----------0-------0-----------------------0
---------------------------------------------------
0-0-------------0---0---0---0-------------------0-0
-----------------0------------------------------0--
0-0---------------0---0---0-----------------------0
0----------0---0---0----------------0---------0---0
1---0---------------0---0-----0-0------------------
0-1------0---0---0----------------0--10---------0-0
--0-------------------0-----0-0-0-0----------------
0----------0---------0-------------01--0--------0-0
-------------------0----------0-0---0--------------
-------------------1---0-------------0------------0
---------------0-0---1------------0---0------------
---------------------0-----------------------------
-------------0---0-0----------------0--------------
---------------------------------------------------

Generation = 4, Population = 86.
---------------------------------------------------
---------------------------------------------------
---------------------------------------------------
--------------------------------------0-------0----
-------------0-------------------------------------
--------0------------------------------------------
---------0-----0-----------------------------------
------------------------------------------0--------
---0-0---0-------0------------------------------0--
----0--0----0--------------------------------------
-----0-----0-0-----0-------------------------------
---------------------------------------------------
-0-----.-*---0------------------------------0-----0
0--0----1--0------0-------0-----------------------1
---------1-----0-----------------------------------
---------------------------------------------------
---0-0-----------0---------------------------------
----0--0------0-------0-------0---------------0-*--
0----------0------------------------0--------------
------------------------------0-0------------------
-------------0-------0---------------1------0------
------0-------------------------------------------0
--.-1--0-------0-----0----------0----.--0----------
-------------------0------0-0-----*----------------
-----------------0---------------0-------0----0----
--0------------0------0----------------------------
0----------0-----1-.-----0----------0--------------
---------------0-----.-1------0---------0----------
-------------------------------------0------------0
-----------0---0---0-------------------------------
---------------------0-----------------------------

Generation = 6, Population = 278.
---------------------------------------------------
--------------------------------------0-------0----
-------------0-------------------------------------
--------0---------------------------0---0---0---0--
---------0-0---------------------------------------
------0---0---------------------------0---0---0----
---0-0-0-0-0------------------------------------0--
----0--00---0---------------------------0---0------
-0-0-----0---0--------------------------------0---0
--0--11--10---0---------------------------0--------
-0---0-*-0-0---0-----0----------------------0---0-0
0--00--11--10-----0-------0-----------------------1
---1-1-.-.-1-0-----0----------------------0---0-0-*
001--10--*1--1--0---0---0---0-------------------0-.
-0-1-1-0-1-1--------------------------------0-----1
0--10--00--0--0---0---0---0---0---------------0-0-0
00-0-0-1-0-0-------0----------------0--------------
--0--01--0--0---0---0---0---0-0-------------0-0-*-0
0-00-0---0-------0---0------------0--10-----0------
----0-00------0-------0-----0---0-0-----------0-0-1
0---0--0-----------0-0-0--------1--01--00-0---0----
----1---0----------0------0-0-0-1-0-------------0-0
--.--10--0---------1-0-0------0--1*--.1--10-0-0----
--1---0--------1-1---10-0-0-0-0-1-*-0-------------0
0---0--0---0-----0-1-0---0-----01--11--01--00---0--
1---0--------0-0-0-10--10-0-0-0---0-----0----------
0-1------0---0-0-1-.---1---0-----00--10--0----0---0
--0--------1-0---1-0-.1--1--0---0-----0---0--------
0----------1-----0---1---0---------01--0--------0-0
---------0-----0-----1-0------0---------0----------
-------------------1-0-0-------------0------------0

Generation = 8, Population = 132.
-------------0-------------------------------------
--------0------------------------------------------
---------0-----0-----------------------------------
----------------------------------0-------0-------0
---0-0------------------------------------------1--
-------0-------------------------------------------
---------------------------------------------------
---------------------------------------------------
-----1-1-------------0-----------------------------
------.--.------0-0-------0-----------------------0
-0-----.-*-------0-----0---------------------------
--------.--.------------------------------1--------
-1-.-.-.-.-.-*---0----------------------0-----0-*0.
--.--.--*..--.-1------0-------------------------*-*
1--.-.-*-.-.------------------------0-------------*
---.--------------------------0-0-----------------*
-------.-----0-----------------------1------------0
------.---1-------0-------0-------1-------0-*---.--
--0------*-----0-----0---------------.-------------
-------------------1----------------1--------------
--01-1---0---------------0----------.*--*-----*-0--
--0-.--0--0---00--------------*-.-*--0-------------
-0*-1.--0----------.--------0----..11.11-.--0------
--1--------------.---.*-0-------.-.-*11-1----------
--1----------------.---------0-----.-1----1-*1-----
1--------------*--01-0----0-------*---------------1
--.----------0---11.10-*-----0-------.-------------
-----------.-------0-.-1-.-00-------1-------0------
-----------.-----*-1-*--------------.-----------0--
--0----0-------------10*---------------------------
0----------0------------------------10------------0

Generation = 10, Population = 356.
---------0-0-0-------------------------------------
------0---0-----------------------0-------0-------0
---0-0-0---0-----0------------------------------0--
-------00-----------------------0---0---0---0---1-0
-0-0-0-1-0-----0------------------------------0---1
-----1---0------------------------0-------0-------0
---0---*-------------0--------------------------0--
-------1--------0-0-------0-----------------------0
-0-0-1-1-1-------0-0-------------------------------
------.-0*1---0-0-0-0---0---0-------------0-----0-0
-0-0-1-.-*-1-0-0-0-0-----0--------------0-----0-00-
--------*--.---00-0---0---0-------------1---0------
11-.-.-.-.-.-.---0-0---0------------0-0---1-0-0-.*.
--*--.1-...-0*1--1--0---0-----0-0---------0---1-.-.
1*0.-.-.-.-.-0---0----------------0--10-0-----0---.
---.----1-0----0--0---0---0-0-0-0---------0-0----1.
0-0----.-1-1---------0-------------01--0--------0-*
------.-0---0---0--10---0---0-0---------0-0-*-0-.-1
0-0*01-0-.-0-----0-1---0-0-----------.--0-----0-1-0
--0----0------01-01--1----0---0---1-100---0-0------
0--*-1--10-0---1-----0-0---00------1**--.-0---*-0-1
1-0-*---00---1--10-0--0-0---1-.-.-*0-*011----------
*-*--.0--11--------.-1---00--11--...1.1*-*--01--0--
--1-10-0--0---0--.0--**-0-----1-.-.0*.-11-1-0-----0
*1.-----0----0---0-*---0---010-1---.1*0-*-1-..10---
1------------*-.1--***1*---1----0-.-110-1-------0-1
--.--------0----1*1..0-.10-1-0-0-----*----0-10--0--
0-1----0---.---0-10*0*-*-.---00-----1-1---0---0---0
0----------.-0-0-.0*0*-0-----0-----1.---------0----
1---00---0----------110*-0-00---------------0------
--1------0-0-0---0-1-*-*----------01.*10-----------

*** Life<Cell> 5x26 ***

Generation = 0, Population = 6.
--------------------------
------0-------00----------
---------------0----------
----0---------------------
---0----------------------

Generation = 17, Population = 51.
0-0-0****1*1****...**0-.--
--...01.0-....**...-...-.-
0-0---1.11*..*..1.**....0.
-----0.*-1.....**-...-...*
----01**.0-.*--**1-**.-*--

*** Life<Cell> 41x15 ***

Generation = 0, Population = 6.
--------------0
---------------
---------------
---------------
---------------
---------------
---------------
---------------
---------------
---------------
---------------
---------------
------------0--
---------------
---------------
-----------0---
---------------
----0----------
--0------------
---------------
---------------
---------------
---------------
---------------
---------------
---------------
---0-----------
---------------
---------------
---------------
---------------
---------------
---------------
---------------
---------------
---------------
---------------
---------------
---------------
---------------
---------------

Generation = 7, Population = 140.
-------0-0-----
--------0-0----
---------0-0---
----------0-0--
-----------0-0-
--------------0
-----------0---
----------0-0--
---------0---0-
--------0------
----0--0-----0-
--00-00-----0-0
-010001----0-0-
00*000-1----0--
1000*-0-1------
-000-1-0-1--0--
*--00-1-0-1--0-
.-.--0-*-0-1--0
.--0.-1-*-0----
-0---000-10---0
1--1-01000-0-0-
--*-0-10--0-0--
1*-1-1-----0---
000-1--0-------
-011--0-0------
--00-0-0-0-----
----0-0-0-0----
---0-0-0-0-----
--0-0-0-0------
-0-0-0-0-------
0-0-0-0--------
-0-0-0---------
--0-0----------
---0-----------
---------------
---------------
---------------
---------------
---------------
---------------
---------------

Generation = 14, Population = 166.
0---------0-0-0
-----------0---
--0-----0---0-0
----0----0---0-
--0-1-0---0-0-0
--1---10---0---
0-----0-0-0-0-0
0---10--10-----
1---------0-0-0
*-.0--11--0----
------1-----0-0
---.-0--1---0--
11.-*1--0-----0
--..001---1---0
*1**.*101---1--
-....-1-*--0.10
**.0-1--*-.-1--
*-*-0-***-*.1-*
..*-.*.-.1.-0-*
--*-1-------1-0
1-1-...*10-01--
00*11-11--1---1
-**...*--1---00
----.---10-11--
1-..-10---0.1-0
*1.0--11--0.---
**------1---0--
-0--1---00---0-
0-1---0----1---
--1---0----1---
0---1----0---0-
----0----------
--0----0---0---
---------------
-----0---0-----
---------------
---0---0-------
---------------
-0---0---------
---------------
---0-----------

Generation = 21, Population = 221.
00.00---0--0-0-
*0.0-00010--0-0
10--.0--10---0-
--00.00-0-----0
---*.-1--------
0-*-0-.-----0--
-100111----0-0-
*.*1.1-0--0----
*1.01---0--01--
.1.--0-*-1-1*10
.*-*-**---1-.-0
*.-.-.*-..--..1
*..0*.-..---.01
-.*.--*.*0*.-.1
*.*.*.*1*1***--
***.****.1-.*..
...--.*0.-...-*
...11.**.1...**
.......*...10-*
...1*1-1**00-0*
...1...*..*..0-
0..-.-.-01*1.**
-.....*1..*.1*0
--...-*...**.*1
.0..-..*.-...-.
.*.01--*....0.1
.***0..**0....0
-10.------0.***
-...-*-0---..00
...1--1----.--0
-.-*.-----1-1--
*---*00-0--*0--
-1.-0--00----0-
-**---00-0--0--
----.0-00--0---
0--0--0---0-0--
--0--------0---
--00-0---------
-0*1-----------
--00---0-------
------0-0------

Generation = 28, Population = 266.
.-*-**-1*-*----
....*.--1--1110
*1...-*..-.0-1-
*1*..--0111-101
.1.*.-*-11.-.-0
.**-.-*.110-0*0
.*0....1.---*--
......1*-*0-.*.
...-..-.-..*-01
.**--*-*1.1***-
.**.*...011-..-
..***..-******-
...*.*1**-*-*..
..**.-...*.....
.***.....1.***.
..**....**1*..*
..*-*..1**.*..*
..****.....***.
..*.......***1.
....**.....-.-.
.*........*..1.
***....*-1****.
*..*.....***.*1
**...**.*.*..*-
*...1*...-**...
*..0-*....*.1..
*.*....*..*.*..
.*-.*.-.0*.*...
....1.*0***.*-.
*..*-*10--**-.-
-.1..--*--..*-1
**-**0--.1*.-**
0.*-.1-*.00**-1
0**----*1*0-110
1**0.-.1.1-*001
--.1.-101-0*-01
*..*..0---**0--
**.0111--0-000-
*.**.*0----.*--
0-1*11-0-------
-0**0------.0--

Generation = 35, Population = 196.
.-.0..-**..0..-
.....*-1....**.
*1..*****-..-*.
*..*.1.*...**1*
**...-**..**.*-
...*.1..****.**
.*-...*...*-**0
**.**..*...1...
.*.-...*1*****.
.*..*.**..-*..*
.*...****.**...
..*.*..-*....**
..*....*.-.-.*.
...*.-.......*.
..*..*.....*.*.
..*.*.....-....
...-**.........
......**..*....
............*.*
.......*.....**
.......*.......
..........**...
**.........**..
..*...........-
..*...***......
*.*....**..*...
**.....**.**...
..-.*..**.**...
...*.*.*.......
..**.....**..**
0.1*...*-....**
..-..0.-**.....
0..**.*.*--..-.
-....**.-*1....
1..-*-.***0....
..*...*..-*.*-*
**.**.*.*-..1-1
....*..-11--1-0
*.*...0-.-...*1
1-*..-1**.-.0..
...*10---*1*-**

*** Life<Cell> 7x14 ***

Generation = 0, Population = 24.
---00-0-----0-
0-0-0--0-0----
---0---0---0--
-------0------
----0-0--0----
-----0--0--0-0
--0-0---0---0-

Generation = 4, Population = 37.
1-**0-1--1*.*-
0--0..*1-*-.--
--1---1-0.-1.0
---0---..--1--
1--*-1*---1--0
101--1--10--1-
---0---0.1-0--

Generation = 8, Population = 45.
.1*.1-.1.-.*.1
..1-....*.-.10
*-1--0.1-.**.-
1--.-1-**--.-1
*-1.0**-101*-0
-1.*1.-0*-*--0
*.01-***..-1--

Generation = 12, Population = 37.
.***-*.*.1....
.*--..*..*-..0
.-.--.*......0
-*-.-*0.**-***
*01.-..-*-..--
*..*.**1.-*-.*
*..11.***.----

*** Life<Cell> 59x17 ***

Generation = 0, Population = 15.
-----------------
-----------------
-----------------
-----------------
-----------------
-----------------
-----------------
-----------------
-----------------
-----------------
-----------------
-----------------
-----------------
----------0------
-----------------
-0---------------
-----------------
-----------------
-----------------
-----------------
-----------------
-----------------
-----------------
-----------------
-----------------
-----------------
-------0-----0---
-----------------
-----------------
---------0-------
-----------------
-----------------
-----------------
-----------------
-----------------
-----------------
---0-------------
-----------------
-----------------
0----------------
-----------------
-----------------
-----------------
-----------------
-----------------
-----0-----------
-----------------
---0-------------
---------0-------
-------------0---
-----------------
-----------------
------------0----
-----------------
-----------------
-----------------
-------------0---
-----------------
--------0--0-----

*** Life<Cell> 48x23 ***

Generation = 0, Population = 24.
-----------------------
-------------------0---
-----------------------
----0--0---------------
-----------------------
-----------------------
---0-------------------
-----------------------
-----------------------
--0--------------------
------0----------------
-----------------------
-----------------------
-----0-----------------
----------0------------
-----------------------
-----------------------
----0----------------0-
-----------------------
-----------------------
-----------------------
-----------------------
-----------------------
-----------------------
-----------------------
---00------------------
--------------0--------
-----------------------
-------0---------------
-------------0---------
-----------------------
-----------0-----------
-----------------------
-----------------------
-----------------------
-----0-----------0-----
-------------------0---
-----------------------
----0------------------
-----------------------
-----------------------
--------0-------------0
-----------------------
-----------------------
-----------------------
-----------------------
-----------------------
-0-0-------------------

Generation = 12, Population = 322.
-0-*--10-1-------------
0-*.1*-.-*11.----------
-*-.*-111--------------
*..**.*-...*1..-1--0---
--0.-1*10--0-----------
0--*----*--0---0-----0-
10--.*.-*1..---1-------
1-*0--*-*-.-1--0-------
*---*-*.01-------------
1-*******----110-0-0-0-
.*....001--1-----------
-1.*..**1--1-----------
0-*---1----------------
1-.-.-*--01-10-----0-0-
---.--11------0-------0
11.1*.-0--0------------
-1-00-1---1------------
1-.**-.*0-.1.*--10---0-
-101-1-..00-.----------
--1-----1-11-----------
-----..-1--1-----------
01-*0--.---0-0-------0-
----1-*---------------0
00*...0*-0-----0-0-----
--10---10-*----0---1---
--*-..*-*.....-010-----
---.1---1-1-------1-*--
001..*-0-0-.-0-.---.-1-
---.---1-***---*-----.-
--.1--0..1--0----00.1-1
1-.--.0.---*--1-------1
--1-***.*..-1----00.1*-
-----*0**.-----1-.---1-
0-..1*-.*---00---*-*1*.
--1-10-1.1--*11----*-0-
-------1..01--0*11-*..*
---0-00*..1*-.-**.-**-1
10-00-0-..**0*----.-.-*
*1-1--*-.-.------.*-11-
*0-**0-------1----.*10-
----*--0---0-----.-0---
1.*...-0--1--1-11*-1---
-.*11-------1----0-----
*00--.-------1---*-.-10
-1------0------1-.-----
00-0-0-*-0-0--0-------0
0---0-0-0-0------------
-0---0-0..---0-0-00-0--

Generation = 24, Population = 402.
*--*......-..*0-***----
*...**....*..-*.*-0*.--
.....**..0.....---1----
.....***.*....**1..1*..
-.-.-..*1.1-..*.-*010-*
.--*.-.1*..*-.-*1.-11-0
..--*...............-**
*..**....*.**.*.1----0-
**..**..*....-1*-..1.1*
*...**....*1*.1..**1.-*
.*...*.****.*..--.-1.--
.*......*.1...1..-*----
..*-.....1-.---*-00--1-
*****....*.1..*...-1-*.
******.*-*.*.*.--1--00-
.**-*.*..*.*.*.*.1.--**
-..*.***-..*-*.-*..-.-0
.............**-.-.....
-.-*..1......*.-1*.1.-1
.**..*......*.--1.-----
-**..*.***....-...----.
..*.*****.***...**..--.
-*-*.-*.1.***...--01.0-
*1*...-**..*.--.*--**-*
**..*1****.*--..-*...0.
.**.*.*....**....*.*..*
.**..*-**.*......*.*.**
**.*****.*****...**....
**-.****1.**1**.*..***.
.1**...............*..*
....-*1...-*-.-..-0....
.--..****...*.-...*...*
.*-..***..*.*-.--...***
..*...*.*.-***..**....*
.*-..-...*......*..****
.-**11-...1.*......**..
.-..**.........***.*.**
..*-.-*1..*.-.*-**....*
.*.*.-**.-**....*.*..*1
..-...**...*.....1*...*
1....*...*.1*-.*..*1*.*
********-...****..-*..*
....***.-**...-****..*1
..-*..*...10**..1..**.-
.1..*-*.-.01-.-...*-*.*
.*-.*....****.....11..-
....*.--*.*----1....1-*
.-**---....--1.....--*-

Generation = 36, Population = 314.
..............-1....--*
.............**...*.*.*
............*..*1**.1.*
*..........****...*.*.*
-..*1....*-**.*...0.***
...*......****......*-1
......**..***.*....****
...*...*...**..**.*1.-*
..*........**...**....*
..*...*.....**.*.....*.
....*.....***..**..***.
..........**..1**..*1*.
...-.*...*-*..0*......*
....*.****....***..*...
...*..***..*...*......-
....****.....**....-.*.
-.**...*.....**-..*-.*.
.*.*.......*.*.........
0*.*......*.....1****1.
..*....**.........*0-10
-......**...**...*-**..
..*....**..*..*...*.*.*
0**.....*.*......*.-*-.
.*.*....*.....*......1.
..***......*.*..1*.**..
..***......**....*.**..
..*..*1....**..........
..**..**.........*.....
..*.**.*........***....
.-.*...........*..*....
.....**...-...**.**..**
*...*.*....*.*.*....***
*......**...*...*.....*
*....**.*...*...**.*..*
.....-**.*..*...*...**.
*......*.**..*.........
.-*......*.*..*.***....
.......*.*..**..**.*...
.*.....................
.*..*...***.......**...
.***....**...-....**...
........-........*..*..
..*........****...*.*..
.......**.*......*.....
..*....**.*...-....**..
...**..*...........*...
..*...-0...*........*..
.1*.*1-....**.*.....-.-

*** Life<Cell> 54x9 ***

Generation = 0, Population = 14.
---------
---------
---------
-----0---
---------
---------
--------0
---------
-------0-
---------
---------
---0-----
---------
---------
---------
---------
---------
-------0-
-----0---
---------
---------
---------
---------
---------
----0----
---------
---------
-------0-
---------
-0-------
-0-------
---------
-0-------
---------
---------
---------
---------
---------
-------0-
---------
---------
------0--
---------
---0-----
---------
---------
---------
---------
---------
---------
---------
---------
---------
---------

Generation = 13, Population = 195.
--0*-...-
0-0--00--
-01-1--..
-1--010*-
-11***.-*
---.-11--
0*.*.-.*-
***..-..*
1--.*-...
--*.---.*
1*-.-.1..
-1-*-**..
-00--0-.1
-----*0.-
0-0--0---
1-*1-.-.-
--.--.*-.
-...-**.-
1.*.....-
1--.*.1.0
--1---.--
-.--1.*.0
0-...**.*
1.1*-.*1-
--.0-1*1-
-*0----00
-.0**0*1-
0.-.-.100
1*-11-*1-
1.0...-*0
*.1.0..*-
0*-1-*0--
-.-01.1--
-11.10*.1
-1-*0--*0
-*1**1-1-
-.0100---
1*-**0-0-
-.-.-00*0
0..*-*-10
-.1.-100-
--..*010-
--1.-.**0
-1*.0..*-
--1*0*-.-
-0*.--11-
0-0---0--
---------
--0-----0
-0-1-----
--0---01-
------1*0
---0--00-
--0-00-0-

Generation = 26, Population = 156.
.*...*...
*..1.*...
--.-.....
......*..
......*.*
.-.*.1***
-.****..*
..**...*.
.**..-.*.
*..*.....
.***.....
..1......
.........
..1*....-
**..*..*1
***...*.*
*....*..*
.***.**..
.....*...
.-**.*-..
..**...-0
-.*.-.*..
.****....
.**..*...
.**.-*...
.*-.....-
.........
-......1.
.....-...
.........
.*..1...0
1*..*..--
.*-.**...
*.*.**...
.*.*..1..
*......**
-***.1***
*..*.*..*
-***....*
..**....0
.***....-
.*..*....
......*.*
.*......*
.*....*.*
..*.....*
--.*.....
-0.-*****
-1.*****-
1*.*.*.*-
*--.*-..1
**1.-*..*
*--.0.1.1
*0-..1*.-

*** Life<Cell> 22x48 ***

Generation = 0, Population = 26.
--------0---------------------------------------
----------------0-------------------------------
---------------------------0--------------------
------------------------------------------------
---0---0---------------------------0------------
-0----------------0-----------0----0------------
--------------------------0------0--------------
-----0------------------------------------------
----0---0--------0------------------------------
--------------------0---------------------------
------------------------------------------------
------------------------------------------------
------------------------------------------------
-----------------------------0------------------
------------------------------------------------
------------------0-----------------------------
0-----------------------------------------------
--------0--------------------------------0------
------------------------------------------------
-----------------0-----------0------------------
----------------------------------------0-------
----------------------------0-------------------

*** Life<Cell> 10x57 ***

Generation = 0, Population = 15.
---------------0------------------------------0----------
-0---------------------------------0---------------------
------------0---------------------------0------------0---
-------0-0-----------------------------------------------
---------------------------------------------------------
-----0---------0-----------------------------0-----------
--------------------------0----------------------0-------
---------------------------------------------------------
---------------------------------------------------------
--0------------------------------------------------------

Generation = 7, Population = 204.
---0-0-01--**11-------0--0-0-0-----0---0-0-0-0-0--1--1--0
--0-----000*----0----0--0-0---0---0-0-----------0--00--0-
-00--0---01*1**-**--0--0-0-0---0-0-0-0-0-0-------0-00-0--
01-1--0---000------10-0-0-0-0---0-0-0-----0--1--0----0---
00--0----0-01--*--00---0-0-0-0---0-0---0---00-10---0-----
--*--10-0-0-000--10-----0-0-0-0---0---0----1000*--0-0----
0--0-000-0-0-01-00-----0-0-0-0-0---0------1-0-*-00-0-----
-0----*10-0-0--10-0---0-0---0-0-0-0-0-0----00*-00-0------
--00---000-0-----0-0-0-0-----0-0---0---0---00-00-0-------
--01*..-110-------0---0-------0---------0-0--1--0--------

*** Life<Cell> 66x68 ***

Generation = 0, Population = 25.
--------------------------------------------------------------------
--------------------------------------------------------------------
---------------------0----------------------------------------------
-------------------------------------------0------------------------
--------------------------------------------------------------------
--------------------------------------------------------------------
------------0-------------------------------------------------------
-----------0--------------------------------------------------------
--------------------------------------------------------------------
--------------------------------------------------------------------
--------------------------------------------------------------------
--------------------------------------------------------------------
--------------------------------------------------------------------
--------------------------------------------------------------------
----------------------------------------0---------------------------
--------------------------------------------------------------------
------------------------------------0-------------------------------
--------------------------------------------------------------------
--------------------------------------------------------------------
--------------------------------------------------------------------
----------------------------------------0---------------------------
-----------------------------------------0--------------------------
--------------------------------------------------------------------
--------------------------------------------------------0-----------
--------------------------------------------------------------------
-------------------------------------------0------------------------
--------------------------------------------------------------------
-----------------------------------0--------------------------------
--------------------------------------------------------------------
--------------------------------------------------------------------
-------------------------------------------------------0------------
--------------------------------------------------------------------
--------------------------------------------------------------------
-------------------------------------------------------------------0
-----------------------0--------------------------------------------
----------------------------------------------------------------0---
--------------------------------------------------------------------
--------------------------------------------------------------------
------------------------------------------0-------------------------
--------------------------------------------------------------------
--------------------------------------------------------------------
--------------------------------------------------------------------
--------------------------------------------------------------------
---------------0----------------------------------------------------
---------------------------------------------------------------0----
--------------------------------------------------0-----------------
--------------------------------------------------------------------
--------------------------------------------------------------------
--------------------------------------------------------------------
------------------------------------------0-------------------------
--------------------------------------------------------------------
--------------------------------------------------------------------
--------------------------------------------------------------------
--------------------------------------------------------------------
--------------------------------------------------------------------
----------------------------------------------0---------------------
--------------------------------------------------------------------
--------------------------------------------------------------------
--------------------------------------------------------------------
---------------------------------------------------------0----------
--------------------------------------------------------------------
--------------------------------------------------------------------
------------------------------------------------------0-------------
---------------------------------------------------0----------------
----------------------------------------0---------------------------
--------------------------------------------------------------------

Generation = 19, Population = 1190.
----0-0--11-****--01-1-----0-----0--1*00---0---------------0--------
---0-0-0--0---1**0000-----0-0-----00-0-00-0---------------0-0-------
--0-0-1-.--1*0*..*-------0-0-1-.--0*.00-00---------------0-0-0------
--00-0-0----0-----0.*0----0---0--.-000000---------------0-0-0-0-----
-0--0-0-----..1****..--0---0--------011-----------------00-0-0------
0----0----0-01-000-**0--0-0-0-0------0------0----------0-00-0-------
---------0-0.0.---1*--.----1---0----------------------0-0-00--------
------0-0----.0---01----0-------------------0--------0-0-0-0--------
-----0------.0-0-0-0.----0---------0---------0--------0-0-0---------
----0---------0-0-0-00----0-------0-0---0-----0--------0-0----------
---0---------0-0-0.1**0----1-----0-0-0------------------0-----------
------------0---0.0100-00-------0-0-0-0-0-----0--------00-----------
-----------------0111-0111-------0-0-0---0---0--------0110----------
------------------0100000-0-------0-0-----0-0-------.000000---------
-------------------01-11.0-0-------0-------0--------11...*10-------0
------------------0-0--00-0--------------------------010000-------0-
-----------------0-01.--10-----------------0--------.-0110------00--
------------------000-0--0----------------0-0---.------0-------011--
------------------01-1-*--0--------------0-0-0---------0------0-000-
------------0------00-0--1--------------0--00--.1*0--00------0-0-0**
-------------0------01--1---------------0------0*--1011-------0--00-
--------------0------0-1----0----------01---*--..1-..1------0--001--
---------------0-----------0----------00*0**1*.*..--**--------0-0*00
--------0-----------------0----------0-000.*0*--**..**00-1--00-.**-.
---------0-----0---0-----0-.----------0--1*-.01*11-*-0-.--00-10--*0-
----------0---0-0-0-0------.-----------0------0..*01-0-.*101-.-.0**-
-----------0-0-0---0-1---.--------------0-010-0*111--10--100--**-10.
------------0-0-----0-0--.-------------00---01.*--.10-1--01..*.-0..-
-------------0-----0-0-.--------------0110--010.-1-.------*..--.---0
-------------00.000-0--.-------.----00000111-.------.--00*-.----1..0
--------------1.1--0-------------0--1-*..11--*---0---10-000..*-..--1
-------0---01*-*-*10---------------*00-0*01.----000*010.-1.-.**...*.
------0-0----00.00---------.------1**------.-011-*.-1-0.-**.1.-.-...
-----0-0-0-.*.-.-.*.-------.-------.0100-0*----.-**1---*-1-0....***.
----0-0-0-01-*---*-1---------1--.....-01--*---0--1..-*-*0.1*-*..***.
-----0-0-1-1-*---*-1------0---0-0.---100-0.-00--10*1--101...-..*...*
------0-0--.*.-.-.*.-----0-0---1-0---01---.*-01-11*1-1-111-.1.1**--*
-------0-----00.00---00.-00-0--.0-----011.1-111**-.0.----.*10-01...*
-----------01*-*-*10--1.0*-0-.-..-----00*-0----...**--...1*...-.**-0
--------------1.1--01*-.1*-00----------0-00-10-0--.-1---1--.--0*--*1
-------------00.00---00.0--1---1---00-*1-1***1.-0..-0---0--*1--*1-00
-------------------.*.-.-*-*--0-0---00---1.-10--1-.*1---1-00-10***--
-------------------1-*---*-1-1-0----1*0*.*1..---1-.*1-00--000***-*0.
-------------------1-*---*-10-0-0-*.0*--.1.-.-1--00-----0*0100----1.
-------------------.*.-.-.*.-0-00-**-1--1.**11-.-.0100---**-00---*.*
---------------------00.00----011---0-.-*-*1.-.--011-0----00---1-1*.
-------------------01*-*-.-0---00-01-0**11.10**0-10-1-..0------001--
----------------------1.1*-0-----0-0--10*-.1.*1-*-0---*.-1.------0*-
---------------------00*-00-0-----0---.*0*.101.1-0----101.--0---0--*
---------------------0-1---0-0--------**0-*-------1.--*00*.0-0-01101
--------------------0-0-----0---------0---1-----0--.1-1*0*-10-0-000-
---------------------0-0---0------------*-------*---**1.-01--1-1-011
----------------------0-0-0---0------1.*--------0*.**0.110.--*--0-00
-----------------------0-----0-0---0*-.-.-1--0-.0-..--*1-0----10-1--
----------------------------0-0-0----*.1*--*---*--*..---.1---0------
---------------------------0-0-0--1-..-0.*.1*---.....**--.1-1--*----
---------------0------------0-0----11*.*.-..-11--.**-1.--*.--**0-.--
--------------0-0------------0-0---011.1.1*0.-.*-1...--.-.1--1------
-------------0-0-0------------0---0-01--..011--*.-----.0-0-0--1-10--
------------0-0-0-0------------------0*0.0*1.1..***0*.*-0---0--**---
-------------0-0-0-----------------001-1*1.-.-.*1--0-..-10--01-*--1-
--------------0-0-------0---------0---.-.-.1-*..00*.-*-10----00*-0--
---------------0-------0-0-------0----1-01.-.***..0-.0-0-0----0-1---
----------------------0-0-0-----0-0--1****.*.*.*..-**0--0-0----0--0-
---------------------0-0-0-0-----0-0--1-0*..-.--11-01--0-0-0-------0
----------------------0---0-------0-0-001**0**0-..1-0-0---0---------
