30

3 27
14
0 16
2 22
0 9
0 16
0 7
0 19
1 25
2 9
0 18
0 16
2 0
0 14
1 1
2 21
137 98

10 18
23
4 1
4 6
9 17
0 8
7 4
3 6
0 1
7 4
4 2
3 3
8 8
1 11
8 15
3 3
3 17
9 2
2 0
2 16
8 10
8 12
1 11
4 16
5 14
41 141

18 7
17
11 6
11 0
4 4
6 6
9 3
5 1
9 4
13 6
1 4
12 2
16 3
0 4
1 1
2 1
1 6
14 4
13 1
55 179

28 9
13
13 1
17 3
4 8
27 1
11 5
11 6
10 2
16 0
26 3
9 2
10 1
3 7
1 6
179 75

24 16
22
22 6
11 3
12 8
17 0
20 4
11 15
13 6
10 8
17 5
0 12
20 12
5 8
5 15
6 3
12 3
23 11
9 0
2 11
5 15
3 12
1 3
0 12
50 85

15 12
26
3 2
11 0
2 10
12 9
11 1
2 11
10 2
0 3
6 7
0 6
13 0
0 1
7 2
0 9
7 1
8 1
4 9
14 0
6 10
7 0
11 11
12 0
8 5
5 2
10 4
13 3
179 150

18 27
13
14 10
9 19
8 20
1 7
16 21
9 25
10 8
2 11
14 16
10 16
13 5
14 15
6 14
30 81

27 7
8
26 0
21 1
25 1
23 1
9 4
10 4
1 3
7 3
76 140

17 17
9
3 5
10 13
11 16
12 0
5 14
10 15
1 15
14 6
2 8
131 114

7 6
28
0 2
4 5
6 3
0 0
4 0
5 0
5 0
3 1
4 0
3 4
3 0
1 4
1 2
3 0
3 3
1 4
2 0
1 0
2 5
5 4
4 4
1 4
5 4
3 1
5 1
6 1
1 3
0 5
124 139

16 23
23
6 19
1 1
14 10
10 4
5 7
6 12
1 22
12 9
7 22
12 13
11 16
13 1
14 4
6 1
13 19
9 9
11 6
5 15
8 1
10 13
3 17
11 4
2 6
143 100

18 16
5
16 14
14 3
7 10
3 1
14 10
48 77

16 23
21
7 13
15 11
12 12
8 21
13 19
8 17
6 11
1 17
8 11
12 14
11 6
2 16
15 8
15 1
3 9
0 8
4 9
1 1
10 13
5 9
5 2
166 57

7 7
11
1 3
2 0
3 6
4 4
6 6
1 6
3 1
4 3
6 1
4 5
1 6
40 107

29 27
5
17 12
3 15
12 18
2 13
22 10
93 149

27 8
10
26 0
1 6
17 6
2 5
26 7
11 6
24 2
12 4
8 7
23 4
24 52

29 30
23
26 12
0 8
28 1
12 24
19 19
12 0
6 16
15 25
1 5
28 23
12 27
8 19
3 27
4 26
17 17
28 1
16 12
14 23
11 1
13 11
23 28
1 29
21 19
113 96

30 30
9
16 29
1 1
8 15
7 29
14 19
21 13
8 15
21 8
17 0
190 107

29 5
9
7 3
9 1
4 1
8 0
0 2
23 4
27 1
13 3
18 4
199 115

2 27
4
1 2
0 23
0 24
0 20
14 177

1 13
26
0 12
0 4
0 7
0 10
0 6
0 1
0 8
0 12
0 4
0 9
0 5
0 10
0 0
0 12
0 11
0 9
0 8
0 7
0 7
0 2
0 0
0 12
0 3
0 8
0 1
0 1
175 152

16 10
6
12 2
4 3
5 8
9 6
3 9
10 1
191 29

22 18
10
1 1
14 1
0 14
6 5
5 7
7 12
3 17
11 17
19 7
20 6
125 24

26 17
26
19 14
0 15
18 6
6 1
4 2
22 6
19 2
6 3
3 13
11 1
3 0
12 11
1 6
4 7
6 8
8 10
7 14
10 0
19 0
9 8
9 13
9 16
19 15
13 13
24 15
24 11
167 17

7 12
15
0 6
1 2
3 2
1 7
3 1
6 11
5 2
5 10
2 7
1 3
5 7
2 5
1 0
4 3
6 9
133 66

11 29
17
4 8
2 16
3 26
2 10
0 26
10 24
7 21
2 26
1 22
10 17
8 10
4 22
3 16
6 3
3 8
7 7
9 4
182 189

30 20
30
11 16
28 7
0 0
22 8
3 17
16 19
23 1
7 17
7 7
28 15
1 6
20 16
21 2
22 10
16 0
3 16
24 13
23 4
8 5
28 0
4 0
23 4
5 9
9 0
13 16
5 8
20 18
27 8
24 12
27 12
70 163

28 17
13
19 1
18 7
11 15
27 4
3 10
6 10
7 14
15 2
24 16
13 10
5 13
19 15
18 2
171 58

8 21
25
3 18
0 3
4 15
1 11
6 20
4 18
3 2
0 8
5 8
4 15
2 5
1 3
6 19
5 20
3 11
3 11
5 16
7 19
0 13
6 3
6 16
1 6
3 19
0 5
4 9
29 48

8 14
1
6 6
168 133
